<?xml version="1.0" standalone="no"?>
<!DOCTYPE svg PUBLIC "-//W3C//DTD SVG 1.1//EN" "http://www.w3.org/Graphics/SVG/1.1/DTD/svg11.dtd" >
<svg xmlns="http://www.w3.org/2000/svg">
<metadata>
This is a custom SVG webfont generated by Font Squirrel.
Copyright   : c 2002 Apostrophic Lab for Luc Devroye All rights reserved 
Designer    : Apostrophe
Foundry URL : wwwapostrophiclabcom
</metadata>
<defs>
<font id="webfontkPcSR1Nt" horiz-adv-x="1269" >
<font-face units-per-em="2048" ascent="1638" descent="-410" />
<missing-glyph horiz-adv-x="598" />
<glyph unicode=" "  horiz-adv-x="598" />
<glyph unicode="&#x09;" horiz-adv-x="598" />
<glyph unicode="&#xa0;" horiz-adv-x="598" />
<glyph unicode="!" horiz-adv-x="471" d="M110 -54.5q1 -29.5 9 -56t25.5 -44t50.5 -17.5q31 0 52 19.5t34.5 47t20.5 59.5t9 54q2 23 2 53q0 31 -7 58.5t-23.5 46t-46.5 18.5q-33 0 -55.5 -19.5t-37 -47t-21.5 -60t-9 -57.5q-4 -25 -3 -54.5zM200 407.5q-1 -20.5 3 -39t14 -30.5t33 -12q27 0 36 16t17 39 q18 61 29 126l20 128l72 429q37 214 59 429l2 31q2 27 6.5 66.5t4.5 78.5t-6.5 68.5t-20.5 36.5q-16 10 -32.5 11t-37.5 1q-43 0 -68.5 -20.5t-41 -51.5t-22.5 -67.5t-9 -67.5q-29 -287 -36 -568.5t-21 -566.5q0 -16 -1 -36.5z" />
<glyph unicode="&#x22;" horiz-adv-x="843" d="M145 1315q-2 -10 3.5 -23.5t15.5 -13.5q12 0 28.5 9t26.5 18q57 39 110.5 97t94.5 124.5t68.5 138.5t35.5 139q2 25 0 52.5t-11 49t-27.5 36t-49.5 14.5t-53 -14.5t-37.5 -36t-24 -48t-10.5 -51.5q-6 -47 -2 -93t0 -93q-8 -72 -47 -147.5t-98 -122.5v-2q0 -2 -2 0 q-21 -15 -21 -33zM586 1294.5q2 -16.5 16 -16.5q12 0 27.5 10l25.5 17q57 39 110.5 97t95.5 124.5t69.5 138.5t36.5 139q2 25 0 51.5t-11.5 49t-28 37t-48.5 14.5q-29 0 -51.5 -14.5t-38 -36t-24.5 -48t-11 -51.5q-6 -47 -2 -94t0 -94q-6 -66 -33 -118t-56.5 -91t-53 -61.5 t-23.5 -26.5q-2 -10 0 -26.5z" />
<glyph unicode="#" horiz-adv-x="882" d="M160 901q4 -12 16 -12h4h4q6 0 30 1t69 1l-45 -203q-4 -29 15 -39t42 -10q20 0 37.5 7t19.5 18l51 229h226l-45 -205q-4 -29 15 -39t42 -10q20 0 37.5 7t19.5 18l52 227q53 0 73.5 -1t26.5 -2t5 -2t9 -1q29 0 39 16.5t15 44.5q4 37 -5.5 47.5t-38.5 10.5h-100l51 243 q68 0 82.5 -1t14.5 -3v-2h6q29 0 39 16.5t14 45.5q4 37 -5 47t-38 10h-88l37 158q4 29 -16.5 39t-43.5 10q-20 0 -36.5 -7.5t-20.5 -17.5l-41 -184q-27 0 -33 -1t-8 -1h-8h-33h-143l37 162q4 29 -16.5 39t-43.5 10q-20 0 -36.5 -7.5t-20.5 -17.5l-41 -186q-55 0 -78.5 1 t-32.5 1h-10h-10q-12 0 -18.5 -10.5t-10.5 -38.5q-4 -39 0 -51.5t17 -12.5q8 0 6 0t4 1t29 1h79l-51 -248q-53 0 -74.5 1t-27.5 1h-6h-11q-12 0 -18 -10t-10 -39q-4 -39 0 -51zM428 999l51 250h226l-52 -248q-27 0 -30 -1l-5 -1h-6h-28h-156z" />
<glyph unicode="$" horiz-adv-x="1120" d="M170 131q-4 -29 1 -43t32 -35q74 -51 165 -61t183 -10l-21 -179h80l23 197q84 12 156.5 50t127 95.5t88 130t44.5 156.5q8 90 -14.5 156.5t-68.5 119t-109.5 93.5t-133.5 78l55 524q61 -6 93 -26.5t47.5 -48.5t19.5 -58.5t8 -56t14.5 -42t38.5 -16.5h31q16 0 23.5 7 t11.5 36l16 164q2 27 3 45t-5 30.5t-19 20.5t-40 19q-55 20 -113.5 25t-118.5 5l21 191h-80l-20 -201h-9q-80 -12 -147.5 -47t-118.5 -88t-83 -122t-40 -146q-8 -84 14.5 -147.5t67.5 -114t104.5 -90.5t125.5 -74l-62 -584q-98 0 -145 25.5t-66.5 64.5t-18.5 84t1 84 t-11.5 64.5t-52.5 25.5h-20q-16 0 -31.5 -3t-17.5 -19zM479 1176q4 37 21.5 76.5t46 71.5t66.5 52.5t85 20.5l-51 -477q-41 25 -73.5 49t-55 55t-33 68t-6.5 84zM641 92l57 539q35 -25 70 -53.5t60.5 -64.5t40 -77t8.5 -90q-8 -78 -50.5 -145.5t-121.5 -96.5q-6 -2 -27 -7 t-37 -5z" />
<glyph unicode="%" horiz-adv-x="1652" d="M215 1190q-6 -61 3 -117.5t37 -97.5t75 -65.5t114 -24.5q78 0 143.5 33.5t115 89t80 125t38.5 141.5l4 30.5t13 30.5q51 -10 96 -20t98 -10q47 0 95.5 6t95.5 20l16 4q8 2 23.5 7.5l39.5 14.5l62 25l-287 -331l-286 -345l-277 -353q-135 -177 -256 -353h154l260 385 q131 190 274 375q141 180 290 349l296 343q18 10 38.5 24.5t38 32t31 37t15.5 41.5q0 12 -8.5 16.5t-18.5 4.5q-25 0 -74 -36t-120.5 -80t-167 -80t-211.5 -36q-61 0 -122 13.5t-114 44.5q-23 80 -81 127t-144 47q-80 0 -146.5 -39t-115.5 -99.5t-79 -134t-38 -145.5z M353 1159q-3 49 1 90t15.5 89t34 90t57.5 71t88 29q39 0 76 -21q0 -45 14 -68.5t51 -45.5q6 -39 7 -77t-3 -79t-16 -87t-33.5 -85t-56.5 -65.5t-86 -26.5q-53 0 -84 27.5t-46.5 68.5t-18.5 90zM979 260q-14 -129 44 -209t194 -80q84 0 151.5 37t116.5 96.5t78.5 134 t38.5 150.5q6 63 -4.5 117.5t-39 94.5t-75.5 62.5t-115 22.5q-84 0 -152.5 -38t-118.5 -99.5t-80 -137t-38 -151.5zM1121 257q-3 52 1 95q4 41 16.5 86t34 82t56.5 61.5t86 24.5q53 0 84 -31.5t46 -78.5t16 -100.5t-3 -94.5q-4 -37 -15 -81t-32.5 -82t-54.5 -62.5t-80 -24.5 q-55 0 -87 31t-48.5 77t-19.5 98z" />
<glyph unicode="&#x26;" horiz-adv-x="2359" d="M182 578q-16 -152 21 -264.5t116.5 -189.5t197.5 -115t261 -38q209 0 398.5 79t349.5 229q39 37 75.5 79.5t66.5 90t50.5 98.5t26.5 104q4 29 2 54.5t2 50.5q63 -39 138 -55.5t153 -16.5q86 0 184 26.5t184 79t146.5 129t71.5 175.5q10 78 -34 127t-122 49 q-23 0 -47.5 -7.5t-46 -21.5t-35.5 -33.5t-17 -46.5q-4 -29 22 -47l55.5 -37.5t54 -45t20.5 -64.5q-4 -37 -31.5 -61.5t-64.5 -39t-76 -19.5t-68 -5q-57 0 -110 13t-102.5 35.5t-96.5 49.5l-94 55q-88 55 -184.5 104.5t-208.5 49.5q-59 0 -126 -21.5t-125.5 -61.5t-99 -94 t-47.5 -120q-8 -74 40 -110.5t116 -36.5q33 0 70 15t41 56q2 31 -14.5 51.5t-36 38t-37 37t-13.5 49.5q4 41 37 62.5t70 21.5q63 0 120.5 -31.5t99.5 -82t64.5 -112.5t16.5 -124q-14 -127 -85 -235.5t-173.5 -188.5t-226 -125t-244.5 -45q-94 0 -177 31t-147.5 87 t-104.5 134t-48 170h6q96 37 195.5 98.5t181 142.5t137 178t67.5 204q10 102 -33.5 168.5t-152.5 66.5q-90 0 -169 -38t-145.5 -101.5t-122 -146t-95 -171t-64.5 -176t-33 -161.5zM400 688.5q1 16.5 1 26.5q4 37 15.5 92t29 115.5t43 120t59.5 107.5t76 77.5t91 29.5 q39 0 62.5 -19t34.5 -49t13 -66t-2 -66q-10 -98 -56 -176t-124 -146q-18 -16 -44 -35.5t-55.5 -38t-58 -31t-51.5 -12.5q-16 0 -23.5 11.5t-9.5 27t-1 32z" />
<glyph unicode="'" horiz-adv-x="526" d="M207 1315q-2 -10 3 -23.5t15 -13.5q14 0 29.5 9t26.5 18q57 41 110 98t94 123.5t69 138.5t36 139q2 25 0 52.5t-11.5 49t-28 36t-48.5 14.5q-31 0 -53.5 -14.5t-38 -36t-24.5 -48t-11 -51.5q-6 -47 -1 -93t1 -93q-8 -72 -47 -147.5t-99 -122.5v-2q0 -2 -2 0 q-20 -15 -20 -33z" />
<glyph unicode="(" horiz-adv-x="913" d="M182.5 157q20.5 -208 93 -389.5t203.5 -328t330 -240.5l41 74q-172 92 -276.5 230.5t-156.5 304t-61.5 352t11.5 377.5q18 184 65 385.5t135 387t223.5 337t331.5 237.5l-16 68q-207 -82 -367.5 -230.5t-277.5 -334t-186.5 -394.5t-90.5 -411q-22 -217 -1.5 -425z" />
<glyph unicode=")" horiz-adv-x="921" d="M-90 -727l29 -74q217 94 378.5 240.5t274.5 330t177.5 392.5t86.5 426q20 205 -4.5 410.5t-101 388t-205.5 329t-316 236.5l-30 -68q117 -55 199.5 -142t139 -193.5t87 -229.5t44 -252t10.5 -259t-15 -251q-20 -193 -67.5 -382t-135.5 -358t-222 -309.5t-329 -234.5z" />
<glyph unicode="*" horiz-adv-x="823" d="M195 1339q-2 -18 8 -36.5t30 -18.5q12 0 51.5 20.5t83.5 47t83 53.5l53 37h16l10 -10h2q-14 -25 -41.5 -64t-54 -81t-48 -80t-23.5 -62q-2 -14 2 -32.5t22 -18.5t31.5 11t24 27.5t16.5 35t10 32.5q14 53 33 107l37 106h30l9 -71q6 -52 16 -107t25.5 -98t37.5 -43 q20 0 30.5 18t12.5 35q2 14 -12 54t-33.5 84t-40.5 84l-28 56l8 9h12q8 -4 15.5 -10.5t17.5 -10.5h2q12 -10 43 -31l65 -41q34 -20 65.5 -36.5t45.5 -16.5q16 0 28.5 13.5t14.5 29.5q2 23 -6 37t-23.5 23.5t-33 14.5t-33.5 9q-10 2 -41 10l-65 18q-34 9 -61.5 15t-31.5 6 l4 11h2q12 0 56 12l92 27q49 15 91 32t54 23h2q12 8 17.5 20.5t7.5 26.5q2 16 -8 30.5t-29 14.5q-14 0 -51 -18.5t-79 -43t-79 -49.5l-53 -34h-2l-6 -7h-15l-10 9h-4l38 56l56 88l52 86q24 40 24 54q4 16 -4 34.5t-27 18.5q-25 0 -42 -27.5t-30.5 -63t-22.5 -71.5t-15 -53 l-37 -104h-33q-4 20 -9 72.5t-14.5 108t-24.5 97t-40 41.5q-23 0 -30 -17t-9 -34q-2 -23 11.5 -60.5t32 -79.5t39 -80t30.5 -58l-8 -10h-13q-18 8 -54 32l-75 49q-39 25 -73.5 44.5t-49.5 19.5q-23 0 -35 -17.5t-14 -35.5q-4 -33 18.5 -46.5t47.5 -21.5q12 -4 46 -12 t71.5 -18.5t69.5 -17.5t42 -7h2v-10l-36 -11l-81 -23l-86 -25q-41 -11 -49 -13q-27 -8 -48 -19.5t-25 -44.5z" />
<glyph unicode="+" horiz-adv-x="1402" d="M156 520h526l-55 -522h151l56 522h520l16 160h-520l55 518h-151l-56 -518h-526z" />
<glyph unicode="," horiz-adv-x="491" d="M-25 -319q0 -8 4.5 -23.5t14.5 -15.5q8 0 24 10l27 16q57 39 111.5 97.5t96.5 126t69.5 140t33.5 140.5q2 25 1 50.5t-10 47t-27.5 35.5t-49.5 14t-53 -13t-37.5 -34.5t-25 -48t-11.5 -51.5q-4 -47 0 -94t0 -94q-10 -86 -53 -153t-100 -132z" />
<glyph unicode="-" horiz-adv-x="919" d="M219 555h578l14 139h-578z" />
<glyph unicode="." horiz-adv-x="393" d="M101 87q1 -30 9.5 -55.5t27 -43t50.5 -17.5q31 0 52.5 19.5t36 47.5t21.5 58.5t9 55.5q2 23 1 53.5t-8 57t-24.5 45t-48.5 18.5q-33 0 -55 -19.5t-36.5 -47.5t-22 -60.5t-9.5 -57.5q-4 -24 -3 -54z" />
<glyph unicode="/" horiz-adv-x="1425" d="M-236 -453l101 -65l1870 2578l-101 66z" />
<glyph unicode="0" horiz-adv-x="1382" d="M202.5 434q12.5 -129 63.5 -234.5t145.5 -172t241.5 -66.5q106 0 195.5 42t161 112.5t127 163t95.5 191.5t64.5 198.5t32.5 185.5q12 117 -2 245t-64.5 234.5t-141.5 176t-232 69.5q-104 0 -192.5 -43t-162 -113.5t-131 -163t-99.5 -190.5t-67.5 -197.5t-33.5 -183.5 q-13 -125 -0.5 -254zM410 688q2 78 8 135q4 53 16 121t32.5 138.5t50.5 139t73 122t98 86t127 32.5q78 0 131 -39t88 -101t53.5 -141t25.5 -161t5 -159t-8 -134q-6 -53 -17.5 -121.5t-32 -140.5t-51 -142.5t-72.5 -126t-98.5 -89t-127.5 -33.5q-78 0 -131.5 40t-87 104.5 t-52 145t-25.5 163.5t-5 161z" />
<glyph unicode="1" horiz-adv-x="888" d="M137 1167h2l39 -92l182 139q90 72 201 142q-33 -195 -71.5 -386.5t-59.5 -387.5q-12 -125 -21.5 -250t-17.5 -250h-164l-8 -82h537l8 82h-172q10 100 22.5 201.5t22.5 205.5q29 260 49.5 520.5t36.5 510.5q2 12 1 20t-17 8h-89l-235 -198q-119 -97 -246 -183z" />
<glyph unicode="2" horiz-adv-x="1218" d="M98 92l31 -92h825q16 0 20.5 14.5t6.5 24.5q23 74 44.5 152.5t29.5 154.5q2 14 1 20.5t-18 6.5q-43 0 -65.5 -9.5t-34.5 -28t-21.5 -44t-25.5 -58.5q-20 -43 -40 -68.5t-43.5 -37.5t-54 -15t-75.5 -6q-53 -2 -107.5 -3t-107.5 -1q-45 0 -88 1t-88 3q8 41 17 74t22.5 63.5 t32 60.5t44.5 65q53 70 127 133l154 125l159 124q79 62 143.5 131.5t108.5 149.5t54 174t-17.5 165t-83 117t-132 68.5t-162.5 22.5q-31 0 -83.5 -5t-107.5 -15.5t-105 -24.5t-75 -31q-18 -12 -21.5 -24.5t-7.5 -32.5l-12 -119q-6 -59 -10 -119v-16q0 -12 4 -26.5t16.5 -25 t36.5 -10.5q33 0 48.5 27t26.5 66l23 85q12 46 40 85t76 65.5t132 26.5q55 0 93 -19.5t60.5 -52.5t30 -77t1.5 -95q-10 -88 -46 -164t-88.5 -144.5t-115.5 -130.5l-125 -122l-135 -133q-66 -66 -122.5 -136.5t-104.5 -148.5t-85 -170z" />
<glyph unicode="3" horiz-adv-x="1253" d="M204 69.5q3 -10.5 19 -24.5q23 -18 63 -31.5t86 -20.5t91 -10t76 -3q104 0 202.5 32.5t176 94t129 149.5t63.5 199q8 74 -5 139t-47 117.5t-89.5 89.5t-130.5 51l2 20h6q123 43 200.5 132.5t92.5 218.5q10 94 -15.5 162.5t-78 112.5t-127 65.5t-160.5 21.5q-31 0 -76 -4 t-92 -13t-90 -22.5t-70 -32.5q-18 -12 -23.5 -25t-7.5 -34q-12 -113 -18 -176.5t-7 -94t1 -36.5t8 -6h20q27 0 50.5 5t40.5 34q29 45 36 99t21 99t53 76t131 31q59 0 97 -23.5t58.5 -62.5t27 -88t0.5 -101q-12 -109 -54.5 -173t-107 -97t-145.5 -42t-171 -9q-12 0 -19 -21.5 t-11 -46.5q-2 -18 -1 -34.5t5 -20.5q33 0 64.5 2t64.5 2q178 0 265 -88t69 -268q-8 -68 -31 -128.5t-60.5 -106.5t-94 -72.5t-130.5 -26.5q-76 0 -115.5 24.5t-57 60.5t-20.5 79t-7.5 82t-15.5 66.5t-44 31.5q-20 4 -35 4q-12 0 -20 -4t-10 -21l-31 -301q-4 -22 -1 -32.5z " />
<glyph unicode="4" horiz-adv-x="1220" d="M55 451q0 -4 4 -17.5t9.5 -28l10.5 -26.5t7 -19h637l-6 -53q-4 -35 -8 -83l-8 -92l-5 -76q-2 -32 2 -38q10 -16 27.5 -19t38.5 -3h24q35 0 62 9t41 56q10 37 17 77t12 81l12 141q41 0 79 -1t79 -1q45 0 58 29t17 64q2 14 2 28t2 29q-53 -8 -107 -13.5t-114 -5.5 q29 256 52.5 509t37.5 509q2 10 2 25q0 16 -16 16h-86l-73 -84l-115 -134l-143 -168l-152 -183l-148 -180l-127 -161q-55 -73 -89 -122t-36 -65zM240 504q2 8 10 19.5l12 17.5q109 166 221.5 313l241.5 301l55 65l54 64q10 0 17 -1t17 -1q-47 -201 -72.5 -399.5 t-56.5 -399.5q-41 0 -106.5 -2t-136.5 -2q-49 0 -95.5 1t-82 4t-57 8.5t-21.5 11.5z" />
<glyph unicode="5" horiz-adv-x="1232" d="M204 66.5q3 -11.5 19 -23.5q20 -16 55 -28.5t74 -19.5t78 -11t66 -4q121 0 229.5 48t192 130t138 189.5t66.5 223.5q12 117 -18.5 207t-94 151.5t-155.5 92.5t-205 31q-51 0 -104 -6.5t-105 -6.5l37 365l65 -35q28 -14 54.5 -22.5t53 -11.5t61.5 -3h26q98 0 211 8.5 t199 49.5q4 4 9 24.5t9 40.5q4 29 -6 29q-104 0 -206.5 9t-202.5 34q-49 12 -100.5 29.5t-104.5 17.5q-45 0 -90 -24.5t-68 -65.5l-57 -547l55 -39q31 8 60.5 13.5t60.5 5.5q236 0 330 -113t69 -342q-8 -72 -33.5 -141.5t-68.5 -123t-105.5 -86t-142.5 -32.5 q-74 0 -111.5 23.5t-55 60.5t-22 80t-7.5 80.5t-14 65.5t-44 32q-20 4 -35 4q-12 0 -20 -4t-10 -21l-31 -301q-4 -22 -1 -33.5z" />
<glyph unicode="6" horiz-adv-x="1431" d="M233 588q-12 -117 10.5 -228.5t80 -198.5t149.5 -139.5t221 -52.5q127 0 235.5 55.5t191.5 145.5t134.5 203.5t63.5 232.5q12 104 -11.5 195.5t-77.5 158t-138 105.5t-191 39q-100 0 -188 -34t-193 -99q33 98 86 187t126 157.5t164 109.5t200 41q53 0 115.5 -12t97.5 -27 q10 29 18 55.5t12 55.5q2 20 -11 30.5t-31.5 15.5t-39 6t-32.5 1q-129 0 -249 -41t-225.5 -112.5t-194.5 -167.5t-156.5 -208t-111 -232.5t-55.5 -241.5zM449 567q8 70 33.5 145.5t70.5 138t108.5 103.5t145.5 41q94 0 156.5 -51t97.5 -128t45 -167t2 -168 q-8 -72 -31.5 -145.5t-66.5 -133t-105.5 -98t-146.5 -38.5q-92 0 -154.5 49t-99.5 123.5t-50 162.5t-5 166z" />
<glyph unicode="7" horiz-adv-x="1052" d="M256 1186h82q2 12 2 31q0 20 4 43q4 45 18.5 85.5t49.5 40.5q20 0 51 -18l70.5 -39.5t86 -40t99.5 -18.5q20 0 46 5l50 10q25 5 46.5 10t33.5 5l14 -16q-125 -141 -225 -274t-175 -272.5t-123 -294t-67 -339.5q-4 -27 -6 -52t-2 -52h211l4 63q2 31 6 66 q20 184 65.5 373.5t129.5 355.5q25 49 70 121t97 145.5t104.5 138t93.5 99.5q18 14 42.5 36.5t47 48.5t39 51.5t20.5 49.5q2 20 -10 38t-35 18q-16 0 -37.5 -20.5t-45.5 -47.5l-45 -53q-22 -27 -38 -39h-2q-18 -6 -37 -6q-16 0 -39.5 6t-48.5 15l-47 18q-23 8 -37 14 q-41 14 -88 32.5t-97 33t-99.5 24.5t-94.5 10q-68 0 -106.5 -21.5t-46.5 -96.5z" />
<glyph unicode="8" horiz-adv-x="1320" d="M205 356q-10 -96 23.5 -169.5t95 -123t143.5 -75t168 -25.5q96 0 190.5 32t172 90t130 141t62.5 186q8 76 -9.5 143.5t-53 123.5t-90 101t-119.5 78l6 14q51 31 97 69t83 83t61.5 97.5t30.5 111.5q8 82 -18.5 145.5t-77.5 107.5t-121 66.5t-145 22.5q-86 0 -166 -31 t-144.5 -85t-106.5 -129t-50 -163q-6 -66 5 -120t37.5 -101t64.5 -87t85 -77l-2 -14q-68 -31 -129 -70t-108.5 -89t-77 -112.5t-37.5 -140.5zM375 377q6 66 28.5 116t58.5 90t84 71.5t105 62.5l119 -68q63 -37 115.5 -83t85.5 -103t24 -131q-6 -66 -36.5 -117t-76.5 -87 t-103.5 -55.5t-119.5 -19.5q-70 0 -126 24.5t-94 67.5t-55 102.5t-9 129.5zM528 1262q6 51 32 94t66 71.5t87 45t96 16.5q59 0 107.5 -21.5t82 -58.5t49 -88t9.5 -111q-10 -98 -77 -172.5t-161 -117.5l-96 58.5t-98 76.5t-74 94.5t-23 112.5z" />
<glyph unicode="9" horiz-adv-x="1390" d="M222 18.5q1 -18.5 9 -20.5q92 -27 197 -27q195 0 350.5 73t269 195.5t182 285.5t87.5 345q12 119 -6.5 245t-73.5 229.5t-148.5 170t-230.5 66.5q-119 0 -220 -55.5t-179 -143.5t-126 -197.5t-61 -217.5q-10 -100 9.5 -192.5t68.5 -164t128 -114.5t188 -43 q102 0 179 35.5t156 103.5l52 57q-16 -113 -60.5 -215t-113 -181t-165 -125t-216.5 -46q-68 0 -136.5 8t-128.5 37l-4 -33l-4 -33q-4 -24 -3 -42.5zM501 924q-7 90 1 163q6 68 28.5 140.5t62.5 133t100.5 98.5t142.5 38q88 0 144 -54t87 -133t38 -169t1 -160 q-8 -68 -29.5 -140.5t-60.5 -132t-97.5 -98.5t-140.5 -39q-92 0 -150.5 52.5t-89 131.5t-37.5 169z" />
<glyph unicode=":" horiz-adv-x="352" d="M87 89q1 -30 9 -56.5t25.5 -44t50.5 -17.5t54.5 19.5t34.5 48.5t19.5 59.5t8.5 55.5q2 23 2 51q0 31 -7.5 57.5t-22.5 45t-46 18.5q-35 0 -57.5 -19.5t-37 -47.5t-21.5 -59.5t-9 -56.5q-4 -24 -3 -54zM182 999q0 -31 8.5 -56t25.5 -43.5t50 -18.5q31 0 52.5 19.5t36 48 t21.5 60t9 54.5t2 51q0 31 -6 58.5t-22.5 46t-47.5 18.5q-35 0 -57.5 -19.5t-36.5 -47t-22.5 -59.5t-10.5 -56q-2 -25 -2 -56z" />
<glyph unicode=";" horiz-adv-x="380" d="M-61 -319q0 -8 3 -23.5t13 -15.5q12 0 29.5 11t27.5 19q55 39 108.5 97.5t95.5 126t70.5 139t35.5 137.5q2 25 1 51.5t-11.5 48t-29 34.5t-49.5 13t-53 -13t-37.5 -34.5t-24.5 -48t-12 -51.5q-4 -47 1.5 -94t1.5 -94q-10 -88 -54.5 -154t-101.5 -131zM195 999 q0 -31 7 -56t24.5 -43.5t49.5 -18.5q31 0 53.5 19.5t37 48t21.5 59t9 55.5q2 23 2 51q0 31 -6 58.5t-22.5 46t-46.5 18.5q-35 0 -57.5 -19.5t-37 -47t-22.5 -59.5t-10 -56q-2 -25 -2 -56z" />
<glyph unicode="&#x37e;" horiz-adv-x="380" d="M-61 -319q0 -8 3 -23.5t13 -15.5q12 0 29.5 11t27.5 19q55 39 108.5 97.5t95.5 126t70.5 139t35.5 137.5q2 25 1 51.5t-11.5 48t-29 34.5t-49.5 13t-53 -13t-37.5 -34.5t-24.5 -48t-12 -51.5q-4 -47 1.5 -94t1.5 -94q-10 -88 -54.5 -154t-101.5 -131zM195 999 q0 -31 7 -56t24.5 -43.5t49.5 -18.5q31 0 53.5 19.5t37 48t21.5 59t9 55.5q2 23 2 51q0 31 -6 58.5t-22.5 46t-46.5 18.5q-35 0 -57.5 -19.5t-37 -47t-22.5 -59.5t-10 -56q-2 -25 -2 -56z" />
<glyph unicode="&#x3c;" horiz-adv-x="1118" d="M59 598q0 -16 4 -23l902 -602l106 133l-729 492l836 498l-84 135l-1024 -608q-6 -4 -8.5 -11.5t-2.5 -13.5z" />
<glyph unicode="=" horiz-adv-x="1538" d="M147 229h1289l18 164h-1288zM209 809h1288l16 162h-1288z" />
<glyph unicode="&#x3e;" horiz-adv-x="1118" d="M68 106l77 -133l1029 602q8 12 8 23v12q0 8 -6 13l-897 608l-113 -135l733 -498z" />
<glyph unicode="?" horiz-adv-x="976" d="M153 1344.5q3 -29.5 14 -53t32.5 -39t56.5 -15.5q16 0 36.5 4t40 13.5t34 23.5t16.5 35q2 20 -7 37.5t-20.5 36t-19.5 42t-4 54.5q4 45 26.5 80.5t55 62.5t73.5 41t84 14q68 0 115 -24.5t76 -67.5t39 -98t4 -117q-8 -84 -44 -164t-85 -158.5t-104.5 -153.5t-103.5 -148.5 t-83 -144t-41 -140.5q-6 -59 24.5 -102.5t94.5 -43.5q57 0 80.5 36t29.5 85q10 59 17.5 118.5l15.5 119.5q10 72 43 137.5t77 127t94 120.5t93 121.5t75 129t40 142.5q8 82 -17.5 145.5t-74.5 104.5t-117.5 62.5t-144.5 21.5q-84 0 -172 -24.5t-162 -74t-125 -122 t-61 -166.5q-4 -29 -1 -58.5zM317 -53q0 -31 8.5 -57.5t26 -44t49.5 -17.5q31 0 52.5 19.5t36 47t21.5 58.5t9 55q2 23 2 51q0 31 -7 58.5t-23.5 47t-47.5 19.5q-33 0 -55 -19.5t-36.5 -47t-21.5 -60t-9 -57.5q-5 -24 -5 -53z" />
<glyph unicode="@" horiz-adv-x="2107" d="M217 578l4 32q14 109 65.5 225.5t133.5 227.5t190.5 209t237.5 172t276.5 117t302.5 43h17q213 -4 348 -70t209 -163t96.5 -209.5t11.5 -211.5l-2 -14q-16 -121 -64 -251t-138 -238.5t-227.5 -180t-329.5 -71.5q-59 0 -78 30.5t-15 85.5q10 78 54 195 q-39 -70 -92.5 -129.5t-114 -102.5t-124 -67.5t-124.5 -24.5q-55 0 -89 21.5t-51.5 55.5t-21.5 78t0 91q4 35 10.5 68.5t16.5 62.5q31 100 91 213t146 208t196 157.5t239 62.5q41 0 70.5 -7t60.5 -22l118 46h5q35 0 30 -31q-2 -10 -4 -18.5t-6 -18.5l-82 -273l-84 -272 q-4 -16 -12 -44t-16.5 -61.5t-15.5 -68.5t-9 -63q-2 -23 -1 -41.5t7 -26.5h25q74 0 147.5 34t138 99.5t117.5 161.5t84 223l2 23q16 150 -30 266.5t-136 196t-215 121.5t-266 42q-152 0 -301.5 -42t-273 -136t-211 -246.5t-117.5 -375.5l-2 -31q-23 -203 34.5 -352.5 t164 -250t245.5 -149.5t285 -49q137 0 246.5 25.5t201.5 70.5t171 107.5t153 134.5l16 -37q-86 -98 -185 -179t-213 -139.5t-241 -90t-268 -31.5q-178 0 -335 57.5t-268.5 170t-169 276.5t-34.5 379zM884 408.5q3 -29.5 14 -52t33.5 -36t59.5 -13.5q57 0 113.5 42t108 109.5 t96.5 149.5t80.5 163t60.5 149.5t37 107.5q4 12 4 16q2 25 -10.5 37.5t-31.5 18.5t-44 7t-47 1q-104 0 -176 -36t-119 -94t-77 -133t-54 -153q-4 -18 -8 -39l-9 -43q-8 -29 -17 -65.5t-13 -75.5q-4 -31 -1 -60.5z" />
<glyph unicode="A" horiz-adv-x="1441" d="M8 0h379l8 82h-139l244 551h461l63 -277q33 -137 72 -274h-121l-8 -82h465l8 82q-53 0 -85 17.5t-51.5 47t-29.5 67.5l-21 81l-154 630q-77 312 -171 623h-301l-11 -82h183l-580 -1218q-18 -37 -35.5 -66.5t-40 -52.5t-53.5 -35t-74 -12zM555 739l270 592l111 -592h-381z " />
<glyph unicode="B" horiz-adv-x="1275" d="M174 0q92 0 183.5 -5t183.5 -5h53q111 0 223.5 30.5t205.5 93t156.5 155.5t75.5 216q3 28 3 55q0 120 -60 206q-74 105 -227 133h-8l2 12h6q109 47 174 136t76 202q2 24 2 45q0 58 -16 103q-22 62 -67.5 102.5t-112 58.5t-146.5 18q-137 0 -272.5 -4t-272.5 -4l-10 -82 h141q-55 -238 -90 -475t-60 -479q-12 -106 -18 -212.5t-10 -213.5h-107zM500 260l53 533h16q25 0 50.5 2t48.5 2q92 0 164.5 -21.5t120.5 -66.5t70 -115q15 -47 15 -107q0 -28 -4 -59q-16 -154 -103 -243t-247 -89q-53 0 -91 4t-60.5 21.5t-30.5 50.5q-5 19 -5 45q0 19 3 43 zM561 895q16 141 26 280l19 279q33 0 66 2t65 2q143 0 217 -66q60 -54 61 -165q0 -24 -3 -51q-10 -88 -37 -143.5t-71 -86.5t-106.5 -41t-142.5 -10h-94z" />
<glyph unicode="C" horiz-adv-x="1308" d="M197 404q16 -128 72.5 -225t161 -153.5t265.5 -56.5q125 0 246 43t221 131q10 8 27 25l34 35q17 18 29.5 36.5t12.5 30.5q2 12 -13.5 32t-29.5 20q-2 0 -2 -3h-2l-93 -81q-45 -39 -93 -68t-102 -46.5t-118 -17.5q-145 0 -229 67t-124 169t-45 226q-2 36 -2 73q0 86 9 168 q10 106 37.5 225t83 219.5t145.5 166t227 65.5q68 0 119 -9.5t86 -33t53.5 -66.5t24.5 -110q2 -16 3 -35t7 -35t17.5 -26.5t34.5 -10.5q6 0 14 -1t18 -1q12 0 21.5 4t11.5 19l29 288q3 15 2 26q0 21 -21 36q-20 14 -66 25.5t-98.5 20.5t-101.5 14t-76 5q-184 0 -325.5 -84 t-240.5 -216t-156.5 -295.5t-73.5 -323.5q-8 -72 -8 -140t8 -132z" />
<glyph unicode="D" horiz-adv-x="1503" d="M100 0q111 0 219.5 -5t219.5 -5h59q190 0 349 59.5t276.5 168t190.5 262t91 341.5q7 62 7 120q0 123 -30 221q-44 144 -142.5 238.5t-247 139.5t-334.5 45q-131 0 -261 -16.5t-259 -38.5l2 -80q35 8 72.5 12t80.5 4q-47 -240 -85 -476t-62 -476q-12 -109 -17.5 -216.5 t-9.5 -215.5h-110zM430 270q23 209 40 415t40 415q10 94 17.5 187t11.5 188q195 0 345 -44.5t248.5 -138.5t140.5 -239q28 -98 28 -222q0 -60 -7 -126q-14 -137 -59 -249t-122 -191t-187.5 -122t-253.5 -43q-18 0 -53 1t-71 4.5t-66.5 11.5t-41.5 24q-15 20 -14 54 q0 19 4 75z" />
<glyph unicode="E" d="M174 0h881q16 0 32.5 49t28.5 111l23 116q10 55 14 70q2 16 1 21.5t-17 5.5q-51 0 -77 -19.5t-41 -50.5t-26.5 -64.5t-34 -64.5t-63.5 -50.5t-117 -19.5q-102 0 -177 3.5t-91 23.5q-6 6 -7 38q-1 16 -1 35t1 42q1 45 5 97t8 99l7 84q3 37 5 52l19 174h371q33 0 50 11 t21 46l6 65h-436l20 280q9 138 21 280l318 10q70 0 98 -19.5t37 -91.5v-41q0 -23 4 -44t16 -36.5t37 -15.5q12 0 19.5 -1t15.5 -1q14 0 21.5 8t11.5 39l30 264l2 8v23q0 12 -10 12h-864l-10 -82h137q-49 -238 -85 -475t-61 -477q-12 -109 -18 -216.5t-10 -215.5h-107z" />
<glyph unicode="F" horiz-adv-x="1048" d="M125 0h453l8 82h-168q25 168 44 335l38 335h368q33 0 50.5 11t21.5 46l6 65h-436q10 141 18.5 279.5t20.5 280.5h6q25 0 69 5t70 5h115h31q20 0 40.5 -2t37 -7t26.5 -14q25 -20 27 -58t3 -75t9 -64.5t43 -27.5h25q14 0 23 6t11 29l31 282v23q0 12 -8 12h-821l-11 -82h138 q-47 -221 -82 -439t-58 -441q-12 -127 -21 -252t-13 -252h-107z" />
<glyph unicode="G" horiz-adv-x="1499" d="M223 676q-7 -62 -7 -121q0 -81 13 -156q23 -129 88.5 -224t176 -150.5t270.5 -55.5q326 0 606 203q14 84 26.5 167t20.5 167q16 143 25 280h-346l-11 -81h172q-14 -74 -25 -147t-20 -146q-6 -57 -10 -114.5t-4 -115.5h-4q-74 -43 -160 -66.5t-168 -23.5q-139 0 -226 62.5 t-134 160t-60 217.5q-6 60 -6 120t6 118q12 127 49 255t106 230.5t175.5 167t259.5 64.5q66 0 115 -9.5t82 -33t50 -64.5t24 -106q0 -16 1 -34.5t6 -34t15 -27t33 -11.5q6 0 15 -1t20 -1q12 0 22.5 4.5t12.5 18.5l30 289q1 9 1 16q0 11 -2 19q-3 13 -21 26q-25 14 -68 24.5 t-92 16.5t-96 8t-78 2q-195 0 -350.5 -75.5t-268 -201.5t-179.5 -292t-85 -344z" />
<glyph unicode="H" horiz-adv-x="1585" d="M174 0h420l8 82h-135q16 109 29.5 215t25.5 215l25 246h645q-14 -88 -25 -183q-12 -123 -17 -246.5t-11 -246.5h-109l-8 -82h422l8 82h-135l39 293l35 293q20 199 34.5 398.5t24.5 399.5h129l10 82h-405l-10 -82h139q-35 -147 -55.5 -295.5t-49.5 -296.5h-653l26.5 296.5 t22.5 295.5h131l10 82h-409l-10 -82h137q-47 -221 -82 -439t-57 -441q-12 -127 -21.5 -252t-13.5 -252h-107z" />
<glyph unicode="I" horiz-adv-x="768" d="M174 0h420l8 82h-135l38.5 293.5l35.5 294.5q20 199 34.5 397.5t24.5 398.5h131l10 82h-405l-10 -82h133q0 -25 -6 -49q-84 -416 -129 -831q-12 -127 -21.5 -252t-13.5 -252h-107z" />
<glyph unicode="J" horiz-adv-x="933" d="M54 133q1 -47 30 -74q49 -55 115.5 -75.5t144.5 -20.5q168 0 265.5 63.5t149.5 166t72.5 229.5t32.5 256q23 219 37 436t17 434h-308l-10 -82h178q-35 -160 -60.5 -324.5t-41.5 -324.5q-12 -129 -18.5 -254t-20.5 -254q-6 -51 -19.5 -97t-39 -82t-66.5 -56.5t-100 -20.5 q-72 0 -106 24.5t-48 60.5t-16 79t-10.5 79t-32 60.5t-76.5 24.5q-16 0 -26.5 -12.5t-17.5 -31t-10 -41t-6 -40.5l-6 -41q-3 -28 -3 -64v-18z" />
<glyph unicode="K" horiz-adv-x="1458" d="M174 0h420l8 82h-135l41 312q20 155 37 313h4l123 96l59 -149l64 -146l78 -173q44 -93 103.5 -172t138.5 -131t185 -52q31 0 63 6t62 14l-6 72q-25 -8 -57 -9q-57 0 -105.5 50.5t-90.5 128t-80 172.5l-73 184q-36 90 -72 164t-75 110q-16 16 -34.5 26.5t-40.5 21.5h-3 l650 546h100l10 82h-481l-10 -82h8q18 0 40.5 -1t41 -7t31 -19.5t10.5 -37.5q-2 -23 -20.5 -43.5t-34.5 -34.5h-3l-581 -504l8 41q14 174 26 344l23 344h-270l-10 -82h137q-47 -221 -82 -439t-57 -441q-12 -127 -21.5 -252t-13.5 -252h-107z" />
<glyph unicode="L" horiz-adv-x="1118" d="M174 0h840q16 0 19 14l5 25l43 152q23 77 31 155q1 10 1 16q0 11 -17 11q-53 0 -79 -19.5t-40 -50.5t-25.5 -64.5t-34 -64.5t-65.5 -50.5t-121 -19.5q-31 0 -57.5 -1t-50.5 -1q-33 0 -58.5 4.5t-42 19.5t-22.5 43q-4 17 -4 40q0 16 2 35q33 307 56 611l46 611h199l10 82 h-473l-10 -82h137q-49 -238 -85 -475t-61 -477q-12 -109 -18 -216.5t-10 -215.5h-107z" />
<glyph unicode="M" horiz-adv-x="2027" d="M51 0h381l8 82h-145l350 1149l17 -103q14 -127 31.5 -267t40 -282.5t50 -279.5t62.5 -256q10 -41 26.5 -48t51.5 -7h26q29 0 44.5 7t31.5 46l477 1087l33 74q6 -131 15.5 -273.5t20.5 -286.5t25 -287l29 -273h-133l-8 -82h491l9 82h-13q-55 0 -82.5 8t-42 27.5 t-18.5 53.5l-10 85q-16 135 -28.5 270.5t-29.5 270.5l-47 376.5l-47 374.5h-297l-10 -82h172l-2 -41q-113 -266 -235 -524l-238 -522q-8 -16 -12.5 -28.5t-28.5 -12.5q-20 0 -26.5 11t-10.5 28q-27 117 -48 232l-44 233q-29 180 -64 356t-88 350h-258l-10 -82h156l4 -41 l-383 -1165q-12 -37 -25.5 -69.5t-34 -57t-50.5 -38t-75 -13.5z" />
<glyph unicode="N" horiz-adv-x="1724" d="M133 0h397l9 82h-154l125 1204l31 -96q37 -117 83 -228l95 -223q57 -125 125.5 -260t161 -246.5t214 -183.5t285.5 -72h27q20 0 45 1.5t48.5 7.5t38.5 17t17 32q2 4 2 14q0 12 -8 12q-25 0 -50.5 -1t-51.5 -1q-33 0 -65.5 4.5t-63.5 16.5l143 1386h144l10 82h-420 l-10 -82h180l-137 -1321q-80 74 -147.5 172.5t-127 207t-111.5 218.5l-100 209l-150 300l-155 296h-268l-10 -82h151l-143 -1384h-152z" />
<glyph unicode="O" horiz-adv-x="1740" d="M225 694q-6 -56 -6 -110q0 -88 17 -169q27 -132 95 -232.5t181 -160t272 -59.5q197 0 353.5 71.5t270.5 194.5t182.5 287t86.5 348q5 50 5 98q0 96 -19 185q-29 133 -101.5 233.5t-188.5 158.5t-275 58q-186 0 -340 -76.5t-265.5 -202.5t-180.5 -289t-87 -335zM471 547 q-5 57 -5 112q0 67 7 132q12 111 46 233.5t98.5 225t162 170t234.5 67.5q147 0 236 -72t135.5 -180.5t55.5 -239.5q4 -56 4 -110q0 -72 -7 -140q-12 -117 -46 -234.5t-98.5 -212.5t-163 -154.5t-239.5 -59.5q-143 0 -231.5 65.5t-133.5 169t-55 228.5z" />
<glyph unicode="P" horiz-adv-x="1220" d="M174 0h420l8 82h-135q20 135 36.5 271t31.5 272h14q16 0 29.5 -1t29.5 -1q117 0 225.5 32.5t195.5 97t145.5 161t70.5 221.5q4 37 4 71q0 84 -25 143q-36 83 -106.5 129t-169 62t-209.5 16q-102 0 -201.5 -4t-201.5 -4l-10 -82h137q-47 -221 -82 -439t-57 -441 q-12 -127 -21.5 -252t-13.5 -252h-107zM547 729q18 178 30.5 352t22.5 353h10q16 0 41 4t41 4q184 0 275 -89q73 -73 73 -211q0 -31 -4 -67q-16 -172 -121.5 -260t-273.5 -88q-23 0 -47 1t-47 1z" />
<glyph unicode="Q" horiz-adv-x="1744" d="M225 700q-5 -48 -5 -95q0 -91 19 -180q28 -134 96 -236.5t181 -165t266 -62.5q53 0 105.5 13.5t103.5 13.5h13q-18 -33 -24.5 -60.5t-10.5 -62.5q-2 -14 -2 -27q0 -56 28 -99q35 -52 91.5 -85t126 -48.5t130.5 -15.5q12 0 43 1t63 5.5t56.5 14.5t26.5 29q2 6 1 25.5 t-9 19.5q-18 0 -36 -4.5t-36 -4.5q-57 0 -95 22.5t-64.5 57.5t-45 77t-38 80t-44 67.5t-61.5 39.5h-2q279 139 416 348.5t168 503.5q5 49 4 96q0 97 -20 186q-30 132 -104.5 231.5t-191.5 158t-274 58.5q-188 0 -341 -76t-265.5 -202t-181.5 -288t-87 -336zM460 543 q-3 47 -3 93q0 79 8 157q12 117 49 240.5t103.5 226t168 168t242.5 65.5q94 0 165 -34t119 -91t76.5 -132t43 -158t15.5 -167v-18q0 -74 -7 -143q-12 -115 -49 -235t-103.5 -217t-166 -159.5t-236.5 -62.5q-150 0 -239 66.5t-134 170t-52 230.5z" />
<glyph unicode="R" horiz-adv-x="1370" d="M174 0h420l8 82h-135l38 292l34 292q45 0 90 2t90 2h10l33 -133q18 -74 43.5 -152t60.5 -151.5t82 -132t107.5 -93.5t136.5 -35q41 0 80 8.5t78 20.5l-15 72q-14 -4 -27.5 -6t-29.5 -2q-59 0 -99 39.5t-70 103t-52.5 139.5t-46 147.5t-52 129t-69.5 84.5 q158 61 254 171.5t114 278.5q4 37 5 70q0 66 -17 117q-25 76 -78 124t-134 69.5t-183 21.5q-129 0 -257 -6.5t-257 -6.5l-10 -82h137q-47 -221 -82 -439t-57 -441q-12 -127 -21.5 -252t-13.5 -252h-107zM551 776q14 170 26.5 338t22.5 338h14q23 0 45.5 2t45.5 2 q188 0 270 -85q66 -68 65 -205q0 -34 -4 -72q-16 -164 -101 -245t-251 -81q-29 0 -60.5 4t-60.5 4h-12z" />
<glyph unicode="S" horiz-adv-x="1077" d="M147 79q4 -17 29 -38q53 -45 132 -61.5t151 -16.5q111 0 206 34t168.5 96.5t119.5 152.5t59 203q3 28 3 54q0 82 -30 144q-39 82 -102.5 143.5t-140 110.5t-142 102.5t-106.5 115.5q-33 50 -33 118q0 17 2 35q10 102 74.5 156.5t164.5 54.5q70 0 108 -20.5t57.5 -50.5 t25.5 -64l11 -65q5 -30 14.5 -50.5t35.5 -20.5q6 0 15.5 -1t19.5 -1q16 0 27.5 5.5t15.5 21.5l23 221q1 11 1 22.5t-1 22.5q-2 23 -25 35h-2q-43 29 -108.5 41t-118.5 12q-98 0 -186.5 -30.5t-157 -88t-113.5 -139.5t-55 -182q-3 -32 -4 -60q0 -42 8 -75q12 -55 40.5 -99.5 t73.5 -80.5l99 -80q53 -41 113.5 -81t109.5 -89t79 -110q23 -47 23 -106q0 -16 -2 -34q-12 -119 -92 -191.5t-198 -72.5q-94 0 -141.5 27.5t-66 68.5t-18.5 90v90q0 41 -10 68.5t-51 27.5h-8q-29 0 -47.5 -7t-22.5 -48l-27 -264q-2 -14 -2 -25.5t2 -20.5z" />
<glyph unicode="T" horiz-adv-x="1236" d="M143 1179q0 -8 14 -10q15 -2 29 -2h19q33 0 48 20.5t23.5 51.5t15.5 65.5t26.5 65.5t56.5 51.5t104 20.5q25 0 50.5 1t50.5 1h110q-45 -213 -80 -425t-57 -427q-14 -129 -22.5 -255t-12.5 -255h-143l-8 -82h477l8 82h-147q23 129 42 260t33 262q10 98 14.5 197.5t7.5 199 t7 198.5t14 198l4 47q37 0 75 1t75 1h14q20 0 49 -1t56.5 -5t51 -12.5t34.5 -22.5q14 -23 18 -61.5t10.5 -78.5t18.5 -69t43 -29q8 0 16 -1t19 -1q25 0 32 21q6 53 6 105q0 36 -2.5 72t-2.5 72q0 52 6 105v4q0 15 -15 15q-141 0 -284.5 -7.5t-284.5 -7.5q-129 0 -257 4 t-257 4q-16 0 -17 -20l-2 -6q-2 -25 -10 -51l-16 -52l-36 -120q-24 -85 -24 -124z" />
<glyph unicode="U" horiz-adv-x="1671" d="M295 406q-1 -15 -1 -30q0 -99 24 -182q28 -95 102 -156t219 -61q72 0 161 30t177 81t165 122t124 152l-19 -94q-4 -39 -6 -89v-20q0 -39 6 -76q8 -46 34 -78t79 -32q70 0 143.5 17.5t138.5 42.5l-4 67q-25 -10 -50 -13t-50 -3q-35 0 -49 14.5t-27 42.5q-9 22 -8 94v31 q2 98 12.5 234.5t25.5 295.5l29 307l24 267q11 119 11 178h-276l-10 -82h141q-18 -133 -42 -265l-46 -265q-16 -98 -29.5 -197.5t-31.5 -197.5q-14 -80 -61.5 -153t-113 -129t-145.5 -89t-160 -33q-117 0 -176 54.5t-81 137.5q-18 70 -18 150q0 15 1 31q4 98 14 186l31 301 q16 139 27.5 275.5t15.5 275.5h-260l-10 -82h127q-33 -197 -74 -389t-62 -391l-6 -53q-12 -110 -16 -227z" />
<glyph unicode="V" horiz-adv-x="1341" d="M172 1466h107q39 -350 99 -690t148 -676q2 -12 7.5 -30.5t12.5 -37t19.5 -30.5t28.5 -12h27q31 0 56 7t42 42l674 1427h90l10 82l-471 2l-10 -84h39q29 0 58.5 -3t52 -12t34.5 -28.5t8 -52.5q0 -10 -2 -19.5t-6 -19.5q-10 -33 -42 -109l-76 -175l-94 -209l-97 -212 l-87 -184q-40 -82 -63 -123l-30 -59l-71 320l-78 327l-82 327l-85 314h-209z" />
<glyph unicode="W" horiz-adv-x="1988" d="M182 1466h115q2 -168 13.5 -352t33 -369.5t54 -363.5t79.5 -336q10 -39 36 -52t67 -13q45 0 65 49l422 1097l62 -411q30 -188 65 -361q16 -80 29.5 -162.5t36.5 -160.5q10 -31 18 -37t41 -6h10q29 0 53.5 6t36.5 37l609 1435h92l10 82h-455l-10 -82q37 0 72 -7 t60.5 -24.5t38.5 -44.5q10 -21 10 -52q0 -9 -1 -19q-4 -33 -29.5 -106.5t-63.5 -168.5l-84 -199l-90 -204l-81 -178l-55 -123l-33 -76q-18 131 -41 275l-46 287l-47 287l-46 271q-4 18 -9.5 47t-15.5 54.5t-27.5 44t-41.5 18.5h-25q-27 0 -57.5 -6t-32.5 -29q-2 -18 -2 -36 q0 -36 8 -72q12 -53 23 -107l-406 -1034l-71 380q-30 167 -52 325l-46 293q-24 145 -62 286h-219z" />
<glyph unicode="X" horiz-adv-x="1423" d="M31 0h440l8 82q-12 0 -29.5 -1t-37.5 -1q-18 0 -38 2t-34 8t-23.5 16.5t-7.5 26.5t29 56l65 95q39 54 87 113l95 115l84 98l58 64q59 -152 126 -299.5t140 -292.5h-196l-9 -82h605l8 82q-47 0 -83 11t-71 42q-25 23 -56.5 75t-67.5 122l-73 148l-73 154l-65 138l-48 100 l447 594h123l10 82h-383l-10 -82h16q14 0 31.5 -1t33 -5t25.5 -13t8 -24q-2 -10 -22.5 -43.5t-52 -79t-70.5 -94.5l-75 -93q-36 -44 -66.5 -76.5t-44.5 -41.5q-8 8 -30 46t-49 94l-59 118l-59 123l-50 106l-32 66h-248l-10 -82h141l118 -343l120 -341h-2l-441 -575l-40 -52 q-18 -24 -40 -40.5t-48.5 -24.5t-65.5 -8z" />
<glyph unicode="Y" horiz-adv-x="1280" d="M162 1466h96q61 -215 142 -418.5t178 -402.5h2q-6 -59 -16.5 -118.5t-16.5 -118.5q-8 -82 -15 -163l-12 -163h-141l-8 -82h493l8 82h-139q8 76 18.5 150.5t18.5 150.5q8 66 11 131.5t10 130.5h2l573 821h76l10 82h-375l-10 -82h37q35 0 62.5 -10t23.5 -51 q-2 -20 -28.5 -66.5t-65.5 -108t-87 -129.5l-93 -130l-80 -110q-37 -48 -56 -68l-26 -27q-76 199 -164 402.5t-201 379.5h-217z" />
<glyph unicode="Z" horiz-adv-x="1202" d="M96 51q-1 -6 0 -10q0 -26 18 -33q22 -8 50 -8q188 0 373.5 -1t373.5 -1h35q35 0 73 8t52 45l25 63q16 42 31.5 88t27.5 87t14 59q2 16 -10 20.5t-29 4.5h-26q-41 0 -62.5 -19.5t-36 -48.5t-27.5 -62.5t-38 -62t-67 -48t-111 -19.5q-100 0 -198.5 2t-203.5 12l235 335 q120 165 230 337l132 209l130 209q39 63 75 127.5t81 125.5l17 25l16 25l-43 45q-23 -10 -46.5 -16.5t-45.5 -6.5q-190 0 -376.5 7t-377.5 7q-49 0 -63.5 -17t-18.5 -64q-4 -35 -9 -71t-9 -71q-4 -29 -5 -56.5t3 -53.5q0 -14 8 -15q66 0 91.5 16.5t33.5 42t11 58.5t28 66 q10 14 42.5 22t71.5 12.5t74 5.5t51 1q88 0 175 -3.5t176 -3.5l24 9l-89 -112l-132 -167l-157 -204l-166 -221l-158 -219l-136 -199q-59 -91 -96 -159.5t-41 -101.5z" />
<glyph unicode="[" horiz-adv-x="757" d="M106 -758q2 20 17.5 130l37.5 279l47 384q26 215 50 446l32 313l28 309l26 283l22 237q9 103 14 169t7 80q4 29 11.5 38t27.5 9h43q35 0 83 1t103.5 2t105.5 2t87 1h53q14 0 19.5 -14.5t1.5 -36.5q-4 -29 -11.5 -38t-17.5 -9t-50 1t-90 2l-100 2q-49 1 -75 1 q-14 0 -17 -23l-268 -2506q-2 -23 12 -23q27 0 76 1l99 2q50 1 90 2t51 1q10 0 17 -9t3 -38q-4 -23 -11 -37t-22 -14h-53q-37 0 -87 1l-104 2q-54 1 -102.5 2t-83.5 1h-43q-20 0 -26.5 9t-2.5 38z" />
<glyph unicode="\" horiz-adv-x="1325" d="M137 2060l1297 -2578l112 65l-1298 2579z" />
<glyph unicode="]" horiz-adv-x="757" d="M-90 -760q-4 -23 1 -37t19 -14h54q37 0 86 1t104 2t102.5 2t81.5 1h43q20 0 28.5 9.5t12.5 37.5q2 20 11 130l21 279l32 384q18 215 43 446l34 313l34 309l34 283l29 237l20 169q8 66 11 80q4 29 -3.5 38t-27.5 9h-43q-35 0 -82 1t-102.5 2t-104.5 2t-88 1h-51 q-14 0 -21.5 -14.5t-11.5 -36.5q-4 -29 3 -38t18 -9q8 0 49 1t91 2l99 2q49 1 76 1q14 0 12 -23l-256 -2506q-2 -23 -16 -23q-27 0 -75 1l-98 2q-50 1 -91 2t-49 1q-10 0 -17.5 -9t-11.5 -38z" />
<glyph unicode="^" horiz-adv-x="786" d="M182 1231q0 -10 9.5 -12t19.5 -2h8q18 0 28.5 2t17.5 6t14.5 13t17.5 26l258 356l117 -346q10 -29 18 -43t41 -14h27q27 0 55.5 4t30.5 26q2 10 -10.5 45l-28.5 76l-32 78q-15 37 -21 53q-4 8 -19.5 50t-35 89.5t-39 85t-27.5 37.5h-64l-45 -59l-75 -99l-89 -118 l-85 -115l-64 -92q-27 -39 -27 -47z" />
<glyph unicode="_" horiz-adv-x="935" d="M-6 -63h934l14 137h-936z" />
<glyph unicode="`" horiz-adv-x="1181" d="M631 1815q-10 -90 20.5 -180.5t75.5 -161.5q6 -8 18.5 -27t26.5 -37t29.5 -32.5t25.5 -14.5q12 0 22.5 15.5t12.5 25.5q0 6 -13 19.5t-29.5 39t-27 65.5t-4.5 101q4 53 17.5 103.5t17.5 103.5q4 45 -11 83t-69 38q-29 0 -49 -13.5t-33.5 -34t-20.5 -45.5t-9 -48z" />
<glyph unicode="a" d="M165 285q3 -82 26.5 -153t73.5 -118t138 -47q70 0 138.5 31t129 85t108.5 127t79 159l-12 -127q-4 -43 -6 -88q0 -8 -1 -15q0 -37 9 -68q10 -38 38.5 -62.5t84.5 -24.5q66 0 129 16t129 27l-2 71l-46 -8q-24 -4 -46 -4q-43 0 -68 27q-16 18 -20 69q-3 34 -3 72v39 q2 59 7 115l6 81q18 170 38.5 338l39.5 338v9q4 29 -0.5 53t-40.5 24h-4l-125 -55q-39 16 -76 25.5t-82 9.5q-100 0 -183 -36t-152 -97.5t-121 -141t-90 -169t-60.5 -180.5t-30.5 -173q-6 -49 -6 -106q0 -21 1 -43zM377 386q2 65 6 114q2 25 1 50t3 48q10 96 28.5 189.5 t60.5 166t117 116.5t195 44h9q27 0 56.5 -2t52 -11t36.5 -29q11 -15 11 -41q0 -7 -1 -15q-6 -49 -19 -134t-38 -184.5t-58.5 -202t-78.5 -185.5t-100.5 -135t-122.5 -52q-68 0 -102 41t-46 99q-11 50 -10 105v18z" />
<glyph unicode="b" horiz-adv-x="1200" d="M204 179q3 -65 27.5 -110.5t75.5 -71.5t142 -26q158 0 282.5 74t213.5 188.5t142.5 257t67.5 281.5q4 45 4 96q0 25 -1 53q-3 81 -26.5 150.5t-73.5 115.5t-138 46q-145 0 -259 -107.5t-208 -285.5l12 71l44 508q22 252 32 508h-285l-8 -74h182q-74 -385 -127 -765.5 t-94 -768.5q-6 -55 -6 -104q0 -18 1 -36zM412 276q2 51 8 103q6 70 28.5 167t57.5 194.5t84 182.5t110 132q29 20 55.5 34.5t59.5 14.5q37 0 61.5 -25.5t40 -65.5t23.5 -89.5t10 -98.5q1 -25 1 -47.5t-1 -43.5q-2 -42 -4 -68q-8 -78 -29.5 -176.5t-64.5 -187.5 t-111.5 -149.5t-171.5 -60.5q-66 0 -99.5 25.5t-46.5 66.5q-12 35 -12 79q1 6 1 13z" />
<glyph unicode="c" horiz-adv-x="995" d="M176 302q10 -93 48 -167t108.5 -119t183.5 -45q115 0 217.5 51.5t177.5 143.5q16 20 34 46t22 52q2 12 -19.5 31.5t-32.5 19.5q-14 0 -34.5 -30.5t-53 -66.5t-76.5 -66.5t-106 -30.5q-92 0 -146.5 48t-81 120.5t-31.5 157.5q-2 33 -2 64q0 50 5 95q8 68 27.5 156 t57.5 167t98.5 134t150.5 55q70 0 96.5 -34.5t37.5 -77.5t23.5 -78t55.5 -35h14q16 0 26.5 5t14.5 30l19 180q1 6 0 12q0 31 -18 51q-22 25 -53.5 38.5t-69.5 17.5t-68 4q-139 0 -249 -72t-189.5 -180.5t-127 -238.5t-59.5 -248q-5 -48 -5 -95.5t5 -94.5z" />
<glyph unicode="d" d="M165 285q3 -82 26.5 -153t73.5 -118t138 -47q70 0 138.5 24.5t129 71t108.5 113t77 150.5l-10 -76q-4 -43 -6 -89q0 -8 -1 -15q0 -38 9 -71q10 -40 37.5 -65.5t85.5 -25.5q66 0 129 16t129 27l-2 71l-46 -8q-24 -4 -46 -4q-39 0 -56.5 35t-22.5 83q-3 30 -3 60q0 18 1 36 q3 48 7 73q41 391 70.5 777t52.5 777h-287l-8 -74h194q-33 -166 -57.5 -328.5t-58.5 -328.5q-39 16 -77 25.5t-83 9.5q-100 0 -183 -36t-152 -97.5t-121 -141t-90 -169t-60.5 -180.5t-30.5 -173q-6 -49 -6 -106q0 -21 1 -43zM377 426q0 86 10 172q10 96 28.5 189.5t60.5 166 t117 116.5t195 44h9q27 0 56.5 -2t52 -11t36.5 -28.5t10 -56.5q-6 -49 -19 -135t-37 -185.5t-57.5 -201t-78.5 -184.5t-101.5 -135t-123.5 -52q-72 0 -102 37t-40 100q-16 82 -16 166zM1227 98h4l-4 2v-2z" />
<glyph unicode="e" horiz-adv-x="999" d="M167 299q3 -88 31.5 -160.5t88 -120t162.5 -47.5q109 0 213 49.5t178 135.5q14 16 32.5 39.5t22.5 44.5q2 14 -12.5 32.5t-28.5 18.5q-6 0 -12 -8q-49 -66 -116 -112t-148 -46q-59 0 -97.5 21.5t-60 58.5t-28.5 84q-6 37 -5 76v22q117 0 223.5 37t191.5 106.5t140 167 t68 217.5q3 27 3 52q0 104 -56 176q-69 88 -212 88q-137 0 -239.5 -78t-173 -193.5t-109.5 -247.5t-51 -243q-6 -60 -6 -122q0 -24 1 -48zM389 563q4 37 12.5 94.5t22.5 121t35.5 127t52.5 114.5t73 83t95 32q49 0 81 -26t49 -63.5t21 -83.5q2 -23 2.5 -45t-2.5 -43 q-8 -76 -39.5 -146.5t-84 -124.5t-121 -87t-148.5 -33q-39 0 -46 25q-5 16 -4 34q0 10 1 21z" />
<glyph unicode="f" horiz-adv-x="655" d="M201 41q0 -23 19.5 -34t47.5 -11q31 0 61.5 12t43.5 35q8 18 18 66.5t17.5 103.5t13.5 107.5t10 76.5q16 160 26.5 318.5t26.5 318.5l7 53h247q29 0 35 12.5t10 39.5l7 63h-285l4 41q6 51 15.5 115.5t27.5 130t45 128t67 111t94 78t126 29.5q63 0 88.5 -31.5t37.5 -70.5 l20 -71q9 -32 42 -32h19q27 0 38 6t15 41q4 37 8 70t8 59q2 22 3 41q0 14 -2 27q-3 29 -21.5 47t-56 27.5t-103.5 9.5q-121 0 -215 -49t-166 -128t-123 -179.5t-84 -204.5l-11 -37l-14 -46q-7 -24 -16.5 -44.5t-17.5 -30.5q-23 -29 -49.5 -33t-57.5 -4l-12 -115h100 q-25 -133 -36 -264l-52 -471q-4 -41 -9 -84t-9 -86q-4 -35 -6 -70.5t-2 -70.5z" />
<glyph unicode="g" horiz-adv-x="1208" d="M39 -643q-1 -10 -1 -19q0 -36 19 -61q25 -31 64 -48t85 -23.5t83 -6.5q311 0 494.5 168t215.5 479l45 437l33 318l24 225l15 154l10 106q4 44 9 83q1 9 0 18q0 18 -2 37q-4 28 -37 27h-6l-117 -55q-45 16 -83 25.5t-83 9.5q-100 0 -183 -36t-152 -97.5t-121 -141 t-90 -169t-60.5 -180.5t-30.5 -173q-6 -49 -6 -106q0 -21 1 -43q3 -82 26.5 -153t74.5 -118t140 -47q68 0 129 23.5t114 64.5t95 95.5t69 113.5l70 146l-15 -156l-17 -180l-17 -180l-15 -156q-10 -96 -38.5 -174t-80 -132.5t-126 -84t-177.5 -29.5q-90 0 -138 27.5 t-75 107.5l-12 36q-8 24 -27 24q-23 0 -42 -17.5t-32.5 -42t-21.5 -51.5t-10 -45zM377 384q2 65 6 114q2 25 1 50t3 50q10 96 28.5 189.5t60.5 166t117 116.5t195 44h25q29 0 55.5 -2t47 -13.5t30.5 -32.5q7 -15 7 -40q0 -10 -1 -20q-6 -49 -19 -134.5t-37 -182.5 t-57.5 -198.5t-78.5 -182.5t-101.5 -133t-123.5 -52q-68 0 -102 40t-46 98q-11 50 -10 105v18z" />
<glyph unicode="h" horiz-adv-x="1280" d="M188 41q-1 -6 -1 -11q0 -30 30 -30q55 0 88 4t51.5 20.5t25.5 49t13 92.5q20 197 78.5 385t173.5 360l45 63q27 36 58.5 67.5t66.5 53t70 21.5q31 0 47 -12t23.5 -30.5t7.5 -43.5q0 -23 -2 -47q-20 -193 -55.5 -382t-55.5 -382q-5 -52 -5 -89q0 -38 11 -70q12 -34 40 -55 t81 -21q66 0 128 15t128 28l-4 69h-4q-20 0 -41 -5t-43 -5q-37 0 -54.5 30.5t-22.5 73.5q-3 27 -3 55q0 16 1 33q3 44 5 68l53 498q6 59 8 128q0 8 1 16q0 59 -14 110q-15 57 -56 95t-121 38q-74 0 -145.5 -48t-136 -124t-121 -172t-99.5 -191l35 340q16 162 29.5 312.5 t23 294t15.5 284.5h-285l-8 -74h182q-43 -193 -71.5 -387t-51.5 -389z" />
<glyph unicode="i" horiz-adv-x="628" d="M195 131q0 -41 11 -74.5t38.5 -55t81.5 -21.5q66 0 130 15t130 25l-4 72q-47 -10 -88 -10q-39 0 -56.5 31.5t-23.5 74.5q-4 29 -4 59q0 15 1 31l5 74l2 8q10 92 14 184.5t14 184.5q10 119 17 237q5 88 4 177v59h-240l-8 -74h135q-47 -229 -89 -456.5t-66 -456.5 q-4 -41 -4 -84zM340 1718q0 -29 8 -55.5t25.5 -43.5t50.5 -17t54.5 19t34.5 47t20.5 58.5t9.5 55.5q2 23 2 51q0 31 -7.5 58.5t-22.5 46t-46 18.5q-35 0 -57.5 -18.5t-37 -46t-22.5 -59.5t-10 -58q-2 -25 -2 -56z" />
<glyph unicode="j" horiz-adv-x="520" d="M-422 -637q-1 -8 -1 -15q0 -33 15 -59q18 -31 50 -50t71 -28.5t76 -9.5q129 0 224.5 58.5t163 153.5t113.5 216t74.5 248t44 248t25.5 215l2 27q23 211 30 417.5t17 417.5h-274l-8 -74h135q-12 -47 -19.5 -95t-13.5 -95l-4 -55q-12 -115 -30.5 -227.5t-30.5 -227.5 q-14 -143 -23.5 -285.5t-26.5 -285.5l-4 -43q-8 -72 -21 -157t-46 -158.5t-88.5 -123t-147.5 -49.5q-57 0 -90 28t-52.5 61.5t-30.5 62t-25 28.5q-23 0 -41.5 -15t-31.5 -37.5t-21.5 -47.5t-10.5 -43zM341 1718q1 -31 9 -56.5t25.5 -42.5t50.5 -17t54.5 19t34.5 47 t20.5 58.5t9.5 55.5q2 23 2 51q0 31 -7.5 58.5t-23.5 46t-47 18.5q-35 0 -57.5 -18.5t-37 -46t-22.5 -59.5t-10 -58q-1 -16 -1 -36v-20z" />
<glyph unicode="k" horiz-adv-x="1177" d="M190 70q0 -18 3.5 -34t11.5 -26t24 -10q49 0 80 6t48.5 24.5t25.5 50.5t14 83q10 102 17.5 203.5t13.5 203.5h4l109 82q27 -94 71.5 -209.5t112.5 -218t159 -172t208 -69.5q98 0 194 45l-14 61q-27 -10 -64 -10q-74 0 -128 43t-98 108.5t-82 143.5l-76 150 q-38 73 -81 129.5t-98 76.5h-2l481 397h119l8 74h-479l-8 -74q10 0 24.5 1t30.5 1q31 0 55.5 -9t20.5 -42q-2 -14 -30.5 -46t-71.5 -71.5t-96.5 -83.5t-103.5 -81t-92 -63.5t-63 -33.5q33 305 59.5 613.5t43.5 613.5h-285l-8 -74h182q-37 -195 -62.5 -388t-54.5 -388 q-35 -238 -64.5 -473t-53.5 -473l-2 -27q-3 -16 -3 -34z" />
<glyph unicode="l" horiz-adv-x="626" d="M198 148q0 -41 9 -75q10 -38 37.5 -63.5t81.5 -25.5q66 0 130 16t130 27l-2 71l-45 -8q-23 -4 -45 -4q-35 0 -52.5 20.5t-23.5 49t-4 62.5t4 58l27 386q13 190 32 385q23 221 42.5 440t23.5 440h-287l-8 -74h182q-31 -152 -51.5 -301t-44.5 -301q-37 -242 -69 -478 t-56 -478l-6 -49q-5 -55 -5 -98z" />
<glyph unicode="m" horiz-adv-x="1871" d="M201 41q-1 -8 -1 -14q0 -17 8 -21q11 -6 36 -6h30q27 0 55.5 4t43.5 27q10 16 15 49t7 53q12 98 26.5 190.5t37 181.5t55.5 178t80 181q14 31 42 75t62.5 85t73.5 70.5t76 29.5q27 0 42 -11t21.5 -27.5t6.5 -38.5q0 -23 -3 -43q-18 -174 -42.5 -343t-41.5 -342l-14 -135 q-4 -29 -5 -59.5t-5 -58.5q-4 -27 0 -46.5t37 -19.5q18 0 34.5 -2t34.5 -2q51 0 68.5 28.5t24.5 75.5q20 197 70 390.5t149 373.5l45 77q27 44 60.5 82t72.5 64.5t82 26.5q29 0 44 -13.5t21 -32.5t6 -44t-2 -47q-20 -193 -54 -379t-54 -379q-5 -52 -5 -90t10 -69 q11 -34 38 -56t80 -22q66 0 130 15t130 26l-4 71q-23 -4 -44.5 -7t-43.5 -3q-37 0 -54.5 36t-21.5 85q-3 33 -3 66q0 17 1 34q2 51 6 84l2 19q10 102 22.5 201.5t22.5 201.5q6 57 10 130q1 17 1 34q0 54 -10 102q-13 63 -53 107.5t-120 44.5q-76 0 -148.5 -52.5t-134 -127 t-110.5 -156.5t-78 -141v45q6 55 12 130q2 26 3 52q0 47 -8 90q-11 68 -47 115t-116 47q-84 0 -155.5 -51.5t-130 -125t-103.5 -157.5t-73 -149q0 139 5 245.5t11 208.5h-240l-8 -74h135q-41 -182 -70.5 -363t-47.5 -366q-10 -90 -17.5 -179t-17.5 -179z" />
<glyph unicode="n" horiz-adv-x="1280" d="M201 80q0 -18 3 -36.5t12 -31t28 -12.5h32q29 0 56.5 4t42.5 27q12 20 17 45.5t9 48.5q12 109 26.5 208t40.5 193.5t68 186.5t107 190l46 64q28 37 60.5 70.5t68.5 57t71 23.5q31 0 47 -13t23.5 -34.5t6.5 -47.5t-3 -50q-16 -172 -50 -339t-51 -339l-6 -41 q-5 -55 -5 -100q0 -43 9 -79q10 -40 38 -65.5t81 -25.5q66 0 130.5 16t129.5 27l-2 71q-47 -12 -94 -12q-37 0 -53.5 36t-21.5 83q-3 29 -3 59q0 18 1 36q3 48 7 73l45 436q6 66 8 139q0 9 1 17q0 64 -14 120q-15 63 -55 104.5t-118 41.5q-74 0 -147.5 -46t-139 -120 t-120 -165t-91.5 -183l7.5 147.5l6.5 126t5 109.5t6 102h-240l-8 -74h135q-37 -256 -81 -507.5t-70 -507.5q-2 -13 -2 -33z" />
<glyph unicode="o" horiz-adv-x="1218" d="M174 287q10 -92 49 -165t111 -117t182 -44q147 0 262 72.5t198 186.5t132 249t61 262q5 45 5 89q0 49 -6 98q-11 92 -50 163.5t-109.5 115.5t-181.5 44q-143 0 -257.5 -73.5t-198.5 -186.5t-134.5 -248t-62.5 -258q-5 -48 -5 -95t5 -93zM385 459v34q0 68 6 125 q8 74 27.5 161t59.5 162t103.5 125t159.5 50q90 0 139.5 -58.5t70 -142.5t20.5 -176q0 -90 -6 -157q-6 -68 -25.5 -150t-57.5 -152.5t-97.5 -118.5t-147.5 -48q-94 0 -147.5 52t-78 129t-26.5 165z" />
<glyph unicode="p" horiz-adv-x="1187" d="M90 905l51 -57q49 53 107.5 97t134.5 83q-35 -217 -65.5 -434t-53.5 -436l-50 -461l-50 -461q-2 -10 -2 -27q0 -18 16 -18q25 0 40 7t25.5 19.5t19.5 29.5l20 38q37 68 59.5 125.5t35.5 112.5t21.5 114.5t16.5 131.5q4 53 10 106t10 107h8q20 0 53 -6.5t56 -6.5 q129 0 230.5 60.5t174 155t114.5 211t54 229.5q5 48 5 93q0 72 -12 138q-19 109 -74.5 189.5t-148.5 128t-226 47.5q-25 0 -52.5 -4.5t-62.5 -4.5l43 387q-47 -4 -75.5 -15t-47 -30.5t-27 -50t-14.5 -76.5l-12 -124q-4 -41 -9 -80t-16 -78h-4q-90 -51 -160.5 -108.5 t-142.5 -131.5zM449 113l104 997h8q16 0 35.5 3t38.5 3q100 0 160.5 -60.5t90 -147.5t35.5 -186q2 -38 2 -73q0 -56 -5 -104q-6 -72 -23.5 -155t-53.5 -153.5t-96.5 -118.5t-152.5 -48q-39 0 -74.5 10t-68.5 33z" />
<glyph unicode="q" horiz-adv-x="1187" d="M165 259q5 -77 30.5 -140.5t77 -105.5t137.5 -42q70 0 140.5 30t132.5 86t112.5 136t81.5 178l-13 -141q-23 -100 -41 -199.5t-28 -199.5q-2 -20 -6.5 -72.5t-8.5 -120t-8 -142.5t-7 -139.5t-3 -109.5t4 -53q6 -14 11 -17.5t22 -3.5q43 0 69.5 3t41 16.5t20.5 39t10 70.5 l80 748l80 747q8 80 12 160t12 160h4q-66 41 -145.5 61.5t-161.5 20.5q-104 0 -191 -37t-157 -100.5t-123 -146.5t-91 -174t-60.5 -186.5t-32.5 -181.5q-3 -37 -3 -76q0 -33 2 -68zM377 401q4 68 8 113q6 51 15.5 113.5t24.5 127t35.5 125t49.5 105.5q47 76 113.5 103.5 t148.5 27.5q37 0 82 -5t74 -28q16 -14 18 -29q1 -5 1 -11q0 -12 -3 -27q-6 -51 -18.5 -137t-35 -186.5t-56 -203t-79.5 -186.5t-104.5 -136t-134.5 -52q-63 0 -94 46t-40 109q-6 44 -6 90q0 20 1 41z" />
<glyph unicode="r" horiz-adv-x="901" d="M219 1128h135q-45 -211 -72.5 -425t-50.5 -427l-4 -22l-5 -70q-2 -26 -2 -51q0 -17 1 -33q2 -41 10.5 -70.5t26.5 -29.5h88q43 0 54.5 30.5t15.5 65.5q10 98 23.5 198.5t35 200t55 196.5t82.5 190h2q8 20 25.5 50t39 56.5t47.5 46t50 19.5q27 0 36 -23.5t14 -53.5 t16.5 -53.5t42.5 -23.5q41 0 49 8t12 43l23 219q1 9 1 17q0 24 -9 36q-12 15 -50 15q-76 0 -147.5 -54.5t-132 -132t-105.5 -161.5t-69 -146l-6 54q2 102 5 202.5t11 202.5h-240z" />
<glyph unicode="s" horiz-adv-x="860" d="M66 121q-1 -8 -1 -16q0 -39 25 -65q31 -32 77 -49.5t97 -24.5t88 -7q86 0 166 29.5t143.5 82t104.5 126t51 161.5q2 18 2 36q0 62 -23 112q-30 63 -79 114.5t-107.5 92.5t-108.5 83t-82 87q-27 38 -27 84q0 9 1 18q8 72 60.5 107.5t117.5 35.5q76 0 102.5 -29.5t36 -66.5 t14.5 -66.5t36 -29.5h8q12 0 32.5 3t22.5 15l19 170q1 10 1 20t-1 19q-2 18 -25 29q-16 10 -39.5 18.5t-49.5 13.5t-51.5 7t-45.5 2q-76 0 -146.5 -27.5t-126 -76t-91.5 -114t-44 -143.5q-2 -18 -1 -34q0 -62 24 -110q31 -60 81 -107.5t109.5 -86t110.5 -79.5t83 -90 q25 -39 25 -89q0 -13 -2 -26q-4 -41 -23.5 -75t-49 -56.5t-66.5 -34.5t-76 -12q-74 0 -121 30.5t-74.5 68.5t-44 68.5t-28.5 30.5q-23 0 -41 -17t-31.5 -41t-21.5 -49.5t-10 -41.5z" />
<glyph unicode="t" horiz-adv-x="665" d="M214 129q0 -38 10 -69q11 -34 39 -55t81 -21q76 0 155 18t154 39l-10 72q-29 -8 -59.5 -13.5t-59.5 -5.5q-31 0 -54.5 8.5t-33.5 40.5q-6 27 -6 80q0 55 3 115.5t7 117t9 89.5l32 270l31 270h219q61 0 68 62l6 55h-281q2 10 6.5 41t8.5 70q2 35 5 71.5t3 65.5 q0 31 -4 50.5t-13 19.5q-51 0 -76.5 -23.5t-39 -59.5t-19.5 -77t-18 -77t-36 -59.5t-69 -23.5h-22l-12 -115h104l-68 -433q-33 -216 -55 -433q-5 -52 -5 -90zM641 115h2v2h-2v-2z" />
<glyph unicode="u" horiz-adv-x="1312" d="M214 231q1 -72 22.5 -129t69.5 -94t134 -37q66 0 136.5 32t135 84t116 122t77.5 147l-12 -120q-4 -41 -6 -85q0 -7 -1 -15q0 -36 9 -66q10 -37 36.5 -61.5t80.5 -24.5q66 0 129 16t129 27l-2 71l-45 -8q-23 -4 -45 -4q-55 0 -67.5 37t-12.5 82q0 23 -1 46q0 81 6 161 q7 102 17 206q16 147 35 292t35 292h-49q-39 0 -62.5 -23.5t-39 -57.5t-22.5 -71.5t-11 -64.5l-26 -142q-15 -85 -40 -180.5t-60.5 -191.5t-82.5 -173t-109.5 -125t-142.5 -48q-59 0 -88 29.5t-40 73.5q-9 35 -9 74q0 11 1 22q3 51 7 94q10 86 16 171l12 171 q8 111 10.5 221.5t12.5 220.5h-240l-8 -74h135l-78 -377q-37 -187 -57 -380q-5 -58 -5 -119v-21zM1266 98h2v2h-2v-2z" />
<glyph unicode="v" horiz-adv-x="1140" d="M104 1128h117q10 -211 39 -419.5t88 -409.5q14 -47 29.5 -91t30.5 -91q4 -10 9 -29.5t12 -39t14.5 -36t15.5 -22.5t30.5 -7t32.5 -1h27q25 0 46 6t36 35l561 1105h86l8 74h-422l-8 -74q29 0 59.5 -2t54 -13t38 -32.5t10.5 -58.5q0 -6 -8 -26l-19 -42l-19 -43 q-9 -20 -11 -26q-10 -20 -35 -75l-58 -124l-70 -146q-38 -77 -73 -139.5t-64.5 -103.5t-46.5 -41q-14 0 -29.5 41t-29.5 93t-24.5 100.5t-14.5 64.5q-37 166 -80 329t-102 318h-221z" />
<glyph unicode="w" horiz-adv-x="1703" d="M104 1128h113q6 -129 14.5 -250.5t20.5 -241.5t30.5 -240t47.5 -242l7 -35l11 -52q6 -28 13.5 -49.5t13.5 -25.5q16 -8 34.5 -9t36.5 -1q23 0 45.5 5t32.5 31l383 840q12 -78 23.5 -192.5t25 -235.5t33 -230.5t45.5 -174.5q12 -29 30.5 -36t49.5 -7h16q23 0 38.5 5 t29.5 33l557 1108h86l8 74h-419l-9 -74q29 0 59.5 -2t54.5 -13t37 -32.5t9 -58.5q-2 -23 -24.5 -76t-55.5 -122l-71 -144l-76 -144l-68 -123q-31 -54 -47 -79q-2 -2 -7 -9l-11 -16q-6 -8 -12.5 -14t-10.5 -6q-14 0 -26.5 30.5t-22.5 77.5t-19.5 102.5t-16.5 106.5l-12 90 q-5 39 -7 52l-9 43l-14 76l-17 95l-18 92q-8 42 -14 70.5t-8 32.5q-4 6 -18.5 15.5t-33 17.5t-39 14t-38.5 6q-39 0 -41 -32q-1 -11 -1 -23q0 -29 7 -63q10 -47 20 -84l-104 -232q-6 -12 -23 -52l-38 -94l-50 -115l-52 -110.5t-45.5 -83t-33.5 -32.5h-4q-10 6 -19 41t-17 77 l-13 80q-6 39 -8 54q-37 174 -62.5 336.5t-70.5 324.5h-217z" />
<glyph unicode="x" horiz-adv-x="1097" d="M-20 0h376l6 72q-8 0 -23 -1t-34 -1q-29 0 -55.5 4t-24.5 20q2 10 22.5 41t50.5 70l64 81l67 76q32 35 54.5 57.5t28.5 22.5q12 0 30.5 -33.5t43 -85t58.5 -110.5t78 -110.5t101.5 -85t128.5 -33.5q53 0 103.5 10t101.5 22l-10 74q-18 -4 -36.5 -6t-37.5 -2 q-47 0 -79.5 22.5t-55.5 57.5q-78 113 -134 240l-110 255l375 471h113l8 74h-361l-6 -74h21q16 0 31.5 -2t27.5 -7t12 -13q-2 -10 -20 -39t-46 -65.5t-61 -75.5l-62 -72q-30 -33 -52.5 -54.5t-28.5 -21.5q-23 0 -27 23q-47 104 -99 203l-103 198h-232l-8 -74h127 q41 -141 87 -277t83 -278h-2l-336 -419l-33 -39q-14 -16 -30.5 -25.5t-36 -13.5t-47.5 -4z" />
<glyph unicode="y" horiz-adv-x="1253" d="M106 -641q-1 -10 -1 -19q0 -36 20 -61q25 -31 63.5 -48t84.5 -23.5t83 -6.5q70 0 139.5 11.5t136 35t128 61.5t114.5 91q55 55 91 118.5t57.5 130t33 137.5t19.5 142q23 211 31 420t31 420q10 111 25.5 217.5t27.5 216.5h-49q-39 0 -62.5 -23.5t-39 -57.5t-22.5 -71.5 t-11 -64.5l-26 -142q-15 -85 -40 -180.5t-59.5 -191.5t-82.5 -173t-109.5 -125t-141.5 -48q-61 0 -90 31.5t-38 77.5q-8 38 -8 81q0 9 1 19q2 53 6 96q18 195 27.5 386.5t21.5 385.5h-240l-8 -74h135l-78 -377q-37 -187 -57 -380q-5 -58 -5 -119v-21q1 -72 22.5 -129 t69.5 -94t134 -37q68 0 141.5 31t138 83t112 124t63.5 153l6 -98q4 -87 4 -175q0 -44 -1 -87q-3 -131 -17 -264q-20 -190 -122.5 -305t-303.5 -115q-90 0 -138.5 28.5t-74.5 108.5q-2 4 -5 14.5t-7.5 19.5t-9.5 16.5t-13 7.5q-25 0 -43 -17.5t-32.5 -41t-22 -50.5t-9.5 -45z " />
<glyph unicode="z" horiz-adv-x="858" d="M57 51q-1 -6 0 -12q0 -15 3 -33q5 -25 32 -24q18 0 32.5 10t30 23.5t34 23.5t42.5 10q45 0 95.5 -23.5t102.5 -52t105.5 -52t106.5 -23.5t91 38.5t63.5 93t43.5 112.5l29 98l-51 16q-25 -57 -51.5 -84t-91.5 -27q-94 0 -184.5 19.5t-184.5 19.5l101 168l96 170l139 275 q68 137 156 266h2q37 25 74 57q42 37 43 87q0 11 -5 25q-6 17 -22 17l-52 -28q-22 -12 -43.5 -22.5t-46 -15.5t-61.5 -5t-72.5 8t-71.5 19.5t-72 19.5t-73 8q-84 0 -113.5 -33t-37.5 -110l-15 -144h60q-4 20 2 58q4 33 14 62.5t33 29.5q20 0 36 -18l34 -37 q18 -19 41.5 -36.5t64.5 -17.5q29 0 56.5 5t60.5 5l-52 -84l-51 -86l-178 -330l-176 -333q-47 -10 -81 -37t-38 -76zM813 256l2 2h-2v-2zM815 258l2 -2v2h-2z" />
<glyph unicode="{" horiz-adv-x="813" d="M96 598q2 20 14.5 38.5t32.5 18.5q123 0 195 82t86 221q6 57 14 150l17 187l15 182q7 86 13 135q6 70 39 128t84 98t114.5 62.5t131.5 22.5h37q12 0 22.5 1t22.5 1h37q16 0 23 -7t5 -32q-4 -20 -11 -34.5t-21 -14.5q-23 0 -49.5 1t-79.5 1q-78 0 -137.5 -64.5 t-71.5 -185.5q-2 -23 -7 -71l-12 -112q-6 -62 -12 -133l-12 -135q-6 -65 -12.5 -119t-8.5 -85q-8 -78 -24.5 -137.5t-55.5 -102.5t-105.5 -67.5t-172.5 -30.5q106 -6 167.5 -30.5t90.5 -67.5t34 -103.5t-3 -136.5q-4 -31 -10.5 -90t-15.5 -132l-18 -153l-16.5 -150.5 l-13.5 -124.5t-8 -77q-14 -121 33 -185.5t124 -64.5q53 0 80 1t49 1q14 0 19.5 -14t1.5 -35q-2 -25 -11.5 -32t-25.5 -7h-37q-12 0 -21.5 1t-21.5 1h-37q-68 0 -127 22.5t-101 62.5t-62.5 97.5t-14.5 128.5q4 33 10 89l15 122l17 142l18 144l15 130q7 59 11 98 q16 139 -39 221.5t-178 82.5q-20 0 -29.5 19t-5.5 42z" />
<glyph unicode="|" horiz-adv-x="370" d="M68 -532h118l240 2293h-119z" />
<glyph unicode="}" horiz-adv-x="813" d="M-80 -766q-2 -25 5 -32t24 -7h37q12 0 22 1t23 1h37q68 0 131 22.5t113 62.5t83 97.5t39 128.5q4 33 9 89l12 122l12 142l12 144l11 130q5 59 10 98q16 139 87.5 221.5t194.5 82.5q20 0 31.5 19t15.5 42q2 20 -6 38.5t-28 18.5q-123 0 -178.5 82t-41.5 221q6 57 18 150 l23 187l23 182l16 135q6 70 -14 128t-62 98t-100.5 62.5t-126.5 22.5h-37q-12 0 -22 1t-23 1h-37q-16 0 -25 -7t-11 -32q-4 -20 1 -34.5t19 -14.5q23 0 49.5 1t79.5 1q78 0 125 -64.5t35 -185.5q-2 -23 -8 -71l-14 -112l-15 -133l-16 -135q-8 -65 -13.5 -119t-9.5 -85 q-8 -78 -3 -137.5t33.5 -102.5t90 -67.5t168.5 -30.5q-109 -6 -175.5 -30.5t-104.5 -67.5t-54 -103.5t-25 -136.5q-4 -31 -10 -90t-12 -132t-14.5 -153t-14.5 -150l-11 -125l-7 -77q-14 -121 -73.5 -185.5t-137.5 -64.5q-53 0 -79 1t-48 1q-14 0 -21.5 -14.5t-11.5 -34.5z " />
<glyph unicode="~" horiz-adv-x="1028" d="M195 1202l32 -28q78 98 197 98q49 0 91 -15.5t84 -35t83 -35t88 -15.5t96 19.5t95.5 50.5t87.5 68t73 71l-32 35q-82 -76 -183 -76q-59 0 -110.5 17.5t-100.5 39t-96 39t-98 17.5q-45 0 -89 -26.5t-84 -64.5t-75 -82z" />
<glyph unicode="&#xa1;" horiz-adv-x="471" d="M38 -610q1 -39 6 -70t22 -39q16 -10 32.5 -12t36.5 -2q43 0 68.5 20.5t41 52t21.5 68.5t10 68q23 223 33 441t17 439q2 63 2 127q0 63 4 127q0 14 1 35t-3 39t-14.5 31.5t-32.5 13.5q-27 0 -36 -17.5t-16 -37.5q-14 -47 -23 -96.5l-18 -98.5l-78 -457q-38 -228 -63 -458 l-2 -29q-4 -29 -7 -67.5t-2 -77.5zM219 993q0 -29 7 -56.5t23.5 -47t47.5 -19.5q33 0 55.5 19.5t36.5 47.5t21.5 60.5t9.5 57.5t3 54.5t-7 56t-25.5 44t-50.5 17.5q-31 0 -53.5 -19.5t-35.5 -47t-20.5 -58.5t-9.5 -55q-2 -23 -2 -54z" />
<glyph unicode="&#xa2;" horiz-adv-x="995" d="M190.5 439.5q10.5 -95.5 51.5 -166t116.5 -112.5t194.5 -42l-25 -219h82l25 231h8q82 10 156.5 64.5t126.5 117.5q16 20 34.5 46t22.5 53q0 12 -21.5 31.5t-31.5 19.5q-4 0 -10.5 -7t-13.5 -18l-13 -19q-6 -9 -8 -11q-37 -59 -83 -100.5t-116 -41.5h-18q-8 0 -19 2 l105 996h12q61 -8 81.5 -44t30 -76t20.5 -72t54 -32h9q20 0 31.5 5.5t15.5 33.5l18 176q4 45 -23.5 71t-69.5 37t-88 13t-79 2l20 197h-81l-27 -227q-106 -23 -191.5 -102t-148 -182t-100 -218t-48.5 -207q-10 -104 0.5 -199.5zM399 621q0 68 7 129q6 53 17 119.5t33.5 132 t56.5 123t83 92.5q6 4 29.5 17t44.5 13l-99 -952q-66 31 -101.5 82t-53 113.5t-17.5 130.5z" />
<glyph unicode="&#xa3;" horiz-adv-x="1507" d="M119 287q-8 -80 23.5 -139.5t88 -97.5t127 -57.5t140.5 -19.5q123 0 229.5 40t216.5 118l191 -131h323l8 82q-78 0 -131 16.5t-98 44t-87 64.5t-97 78q31 53 48 104t23 111q4 45 2 81.5t-12 70.5t-26.5 67t-38.5 67h-2v7h262q39 0 49 15t14 50l4 43h-436q-35 23 -67 49 l-64 54l-67 53q-36 29 -65.5 63.5t-47 74.5t-13.5 87t28 83t57.5 60.5t75.5 37t85 12.5q70 0 108 -20.5t58.5 -50.5t26.5 -65.5t12 -65.5t15.5 -50.5t35.5 -20.5q8 0 16.5 -1t18.5 -1q14 0 25.5 5t13.5 24l25 223q2 27 -1.5 43t-25.5 33q-20 14 -50 24.5t-64 17.5t-67.5 11 t-58.5 4q-86 0 -170 -23.5t-153.5 -70.5t-115.5 -117.5t-56 -167.5q-10 -102 19.5 -166.5t103.5 -128.5l-3 -10h-294l-11 -108h439l103 -68q54 -37 98 -83t70 -102.5t19 -125.5q-4 -16 -9 -32.5t-21 -33.5l-100 77q-56 42 -117.5 78t-125 60.5t-122.5 24.5q-63 0 -129 -21.5 t-120 -60.5t-92 -95t-44 -124zM217 338q6 63 48 100t106 37q43 0 113.5 -37t144 -86t140.5 -99l105 -77h3q-70 -63 -150 -89t-166 -26q-61 0 -124.5 16.5t-115 51.5t-82 86t-22.5 123z" />
<glyph unicode="&#xa5;" horiz-adv-x="1280" d="M162 1466h112q61 -215 142.5 -418.5t177.5 -402.5h-354l-11 -104h351l-17 -131h-348l-10 -105h350l-20 -223h-140l-8 -82h477l8 82h-139q4 55 11.5 111.5l15.5 111.5h348l10 105h-346l12 131h349l10 104h-350l573 821h76l10 82h-375l-10 -82h37q35 0 62.5 -10t23.5 -51 q-2 -20 -28.5 -66.5t-65.5 -108t-87 -129.5l-93 -130l-80 -110q-37 -48 -56 -68h-37q-76 199 -158.5 389t-195.5 366h-217z" />
<glyph unicode="&#xa8;" horiz-adv-x="1181" d="M501 1728.5q1 -24.5 9 -45t23.5 -34t44.5 -13.5q27 0 46 13.5t31.5 34t19.5 45t9 47.5q2 20 1 46.5t-9 49t-23.5 39t-42.5 16.5t-46 -15.5t-32.5 -39t-20.5 -50t-9 -46.5q-2 -23 -1 -47.5zM837 1729.5q1 -23.5 8 -45t22.5 -35t43.5 -13.5q27 0 47.5 13.5t34 34t20.5 45 t9 47.5q2 20 1 46.5t-9 49t-24.5 39t-43.5 16.5t-46 -16.5t-32.5 -39t-20.5 -49t-9 -46.5q-2 -23 -1 -46.5z" />
<glyph unicode="&#xa9;" horiz-adv-x="2177" d="M225 674q-14 -143 25 -285.5t133 -256.5t245.5 -185.5t360.5 -71.5h8q260 2 466 86t353.5 220t232.5 308.5t103 350.5l2 12q12 145 -30.5 287.5t-142 256t-255 183.5t-364.5 70h-8q-166 -2 -310.5 -42t-265.5 -111t-218 -164t-167.5 -200.5t-112.5 -221t-55 -226.5v-10z M461 770v4q8 72 35.5 157t74.5 170t114 163.5t152 140t188 98.5t224 39h6q193 0 329 -83t219 -206t116 -263t20 -257l-2 -12q-12 -115 -69.5 -244t-158.5 -238.5t-246.5 -182t-329.5 -74.5h-7q-127 0 -227 36.5t-176 99t-129 143.5t-85 168t-43 175t-5 166zM764 462 q10 -93 48 -167t108.5 -119t183.5 -45q115 0 217 51t178 144q16 20 33.5 45.5t21.5 52.5q2 12 -19.5 31.5t-31.5 19.5q-14 0 -34.5 -30.5t-53.5 -66.5t-77 -66.5t-105 -30.5q-92 0 -146.5 48t-81 120.5t-30.5 157.5t4 159q6 68 25.5 156t58.5 166.5t98.5 134t149.5 55.5 q70 0 96.5 -35t37.5 -78t23.5 -77.5t55.5 -34.5h14q16 0 26.5 5t14.5 29l18 181q4 39 -16 63.5t-53 37.5t-71 17.5t-68 4.5q-139 0 -249 -72t-190 -180.5t-127 -238.5t-59 -249q-10 -96 0 -189z" />
<glyph unicode="&#xab;" horiz-adv-x="1525" d="M80 578q-2 -10 18 -48l52 -88l68 -111l73 -115l62 -98q28 -44 38 -65q16 -29 30.5 -41t51.5 -12h129q8 0 17.5 2t9.5 10q2 6 -3 14.5t-5 14.5l-203 285q-98 143 -185 297l62 60l102 99l119 116l114 114l87 91q35 38 35 48q0 6 -6.5 17.5t-16.5 22.5t-20.5 20.5t-16.5 9.5 l-8 -9l-240 -251l-153 -162q-76 -82 -158 -156l-31 -31q-20 -20 -22 -34zM594 578q-2 -8 20 -50l57 -100l74 -126l79 -126l67 -103q29 -44 39 -55q10 -10 17 -14t24 -4h145q10 0 19.5 2t9.5 10q2 6 -2 14.5t-8 12.5l-200 286q-99 142 -185 298l61 59l101 99l119 118l114 114 l86 90q35 38 35 48q0 6 -6.5 17.5t-15.5 22.5t-20.5 19.5t-17.5 10.5l-235 -246l-158 -169q-80 -85 -166 -163l-31 -30q-20 -19 -22 -35z" />
<glyph unicode="&#xad;" horiz-adv-x="919" d="M219 555h578l14 139h-578z" />
<glyph unicode="&#xae;" horiz-adv-x="1542" d="M166 1206q-10 -109 19.5 -216t101 -193t185.5 -140.5t271 -54.5h9q197 0 353.5 63.5t268 167t176 234.5t78.5 266v8q10 111 -22.5 218.5t-107.5 192.5t-191.5 138.5t-276.5 53.5h-8q-188 0 -340 -68t-262.5 -172.5t-175 -234.5t-78.5 -255v-8zM344 1278q6 55 26.5 119.5 t56.5 129t86 125t114.5 106.5t143.5 75t173 29h6q147 0 248.5 -62.5t163 -155t86.5 -199t16 -194.5q-10 -92 -55 -196.5t-127 -190.5l-8 25l-19.5 -4t-19.5 -2q-29 0 -48.5 16t-34.5 44t-27.5 61.5t-22.5 70.5l-32 96q-15 45 -36 68q82 41 133.5 104.5t61.5 159.5 q14 131 -53.5 186.5t-190.5 55.5q-25 0 -50.5 -1t-47.5 -3q-12 0 -24.5 -1t-22.5 -1q-39 0 -80 -1t-82 -1l-6 -68h82q-25 -109 -43.5 -216t-28.5 -216l-8 -66l-23 -278h-61l-6 -68h266l6 68h-80l20 159q9 79 19 156h92q12 -53 31.5 -122.5t50.5 -131t77 -103.5t116 -42h18 q10 0 23 4q-72 -59 -164 -95t-205 -36h-6q-143 0 -242.5 60.5t-160 150.5t-85 193.5t-16.5 191.5zM827 1292l11.5 184.5t13.5 184.5q10 2 25 2h24q104 0 148.5 -46t33.5 -153q-18 -174 -194 -174h-35q-21 0 -27 2z" />
<glyph unicode="&#xb4;" horiz-adv-x="1181" d="M629 1403q-2 -12 5 -26.5t21 -14.5q4 0 12.5 5t10.5 7h2q45 35 90 87t82 112.5t62.5 123t31.5 118.5q2 23 0 48t-11 45.5t-26.5 34t-46.5 13.5q-53 0 -76.5 -39t-27.5 -84q-4 -51 -3 -101.5t-3 -101.5q-8 -66 -26.5 -110.5t-72.5 -87.5h-2q-18 -11 -22 -29z" />
<glyph unicode="&#xb8;" horiz-adv-x="995" d="M354 -367q-6 -45 5.5 -70.5t31 -38.5t42 -19.5t43 -15.5t31.5 -25.5t9 -49.5q-4 -39 -19.5 -76.5t-31.5 -72.5l43 -10q41 61 59.5 118.5t26.5 126.5q6 61 -5 110.5t-26.5 93.5t-28 83t-8.5 78q0 4 -1 10t1 10q2 27 13.5 46.5t25.5 36.5l29 34q14 16 22 37l-100 2 q-12 -29 -35 -76l-47 -102q-25 -55 -46.5 -115t-33.5 -115z" />
<glyph unicode="&#xbb;" horiz-adv-x="1525" d="M383 51q0 -6 7 -18.5t17.5 -23.5t22.5 -19t19 -8q4 0 15 12l25 28q14 15 25.5 30.5t15.5 19.5l189 202l144 150l149 143q12 10 26.5 25.5t16.5 32.5q2 14 -6 27l-15 24q-2 2 -23 40l-55 92l-70 119l-75 122l-66 99q-29 42 -40 52q-10 2 -21 2h-20h-121q-4 0 -20.5 -1 t-18.5 -11q0 -10 31 -56l70 -103l77 -106l49 -67q47 -66 88 -135l80 -141l-60 -60l-102 -99l-120 -119l-114 -117l-86 -92q-34 -38 -34 -44zM897 51q0 -6 7 -18.5t17.5 -22.5t22.5 -19t19 -9q47 41 88 90l84 96l186 198l192 189q12 10 33 31.5t23 38.5q0 8 -22.5 52 t-58.5 105l-78 131l-82 131l-70 105q-30 43 -37 51q-16 2 -31 2h-29h-104q-4 0 -20.5 -1t-18.5 -11q0 -10 3 -14.5l7 -10.5l202 -285q99 -144 183 -298l-58 -58l-102 -99l-119 -120l-115 -118l-87 -92q-35 -38 -35 -44z" />
<glyph unicode="&#xbf;" horiz-adv-x="831" d="M57 -408q-8 -82 15.5 -144t72 -103t115 -62.5t141.5 -21.5q86 0 175.5 25.5t163 75.5t124.5 124t62 170q2 27 1 57.5t-11.5 56t-31 42t-55.5 16.5q-16 0 -38.5 -5t-44 -14.5t-36 -24.5t-16.5 -36q-2 -18 8 -35l23 -36q12 -19 22.5 -43.5t6.5 -61.5q-6 -45 -29 -82 t-56.5 -62.5t-74.5 -40t-84 -14.5q-70 0 -118 27t-75.5 71t-37 101t-3.5 121q8 82 41 159.5t77 151.5t94.5 146.5t94.5 144.5t75.5 144.5t39.5 146.5q6 59 -20.5 104t-91.5 45q-59 0 -84 -38t-29 -89l-27 -237q-10 -106 -68.5 -198.5t-126 -183.5t-125 -187.5t-69.5 -209.5z M509 998.5q1 -31.5 9 -60.5t25.5 -48.5t48.5 -19.5q33 0 55.5 18.5t35.5 45.5t20.5 57.5t9.5 55.5q2 27 2 57q0 31 -8.5 58.5t-26.5 46t-53 18.5q-31 0 -52.5 -18.5t-35 -45t-20.5 -56.5t-9 -54q-2 -23 -1 -54.5z" />
<glyph unicode="&#xc1;" horiz-adv-x="1441" d="M8 0h379l8 82h-139l244 551h461l63 -277q33 -137 72 -274h-121l-8 -82h465l8 82q-53 0 -85 17.5t-51.5 47t-29.5 67.5l-21 81l-154 630q-77 312 -171 623h-301l-11 -82h183l-580 -1218q-18 -37 -35.5 -66.5t-40 -52.5t-53.5 -35t-74 -12zM555 739l270 592l111 -592h-381z M762 1712q-2 -10 3 -22.5t17 -12.5q4 0 12.5 4.5t10.5 6.5q37 25 77 72.5t72.5 104t55 113t26.5 99.5q2 20 1 41.5t-9 40t-22.5 30t-38.5 11.5q-45 0 -66.5 -35t-26.5 -74q-4 -45 -3 -89t-3 -89q-6 -51 -22.5 -87t-34.5 -58.5t-33.5 -36t-15.5 -19.5z" />
<glyph unicode="&#xc9;" d="M174 0h881q16 0 32.5 49t28.5 111l23 116q10 55 14 70q2 16 1 21.5t-17 5.5q-51 0 -77 -19.5t-41 -50.5t-26.5 -64.5t-34 -64.5t-63.5 -50.5t-117 -19.5q-102 0 -177 3.5t-91 23.5q-6 6 -7 38t0 77t5 97t8 99l7 84q3 37 5 52l19 174h371q33 0 50 11t21 46l6 65h-436 l20 280q9 138 21 280l318 10q70 0 98 -19.5t37 -91.5v-41q0 -23 4 -44t16 -36.5t37 -15.5q12 0 19.5 -1t15.5 -1q14 0 21.5 8t11.5 39l30 264l2 8v23q0 12 -10 12h-864l-10 -82h137q-49 -238 -85 -475t-61 -477q-12 -109 -18 -216.5t-10 -215.5h-107zM735 1712 q-2 -10 4 -22.5t19 -12.5l18 11h2q39 27 79 73.5t73 102t55.5 111t26.5 102.5q2 20 0 41.5t-9.5 40t-22.5 30t-40 11.5q-45 0 -65.5 -36t-24.5 -73q-4 -45 -3 -89t-3 -89q-6 -51 -23.5 -86t-36 -58.5t-34 -37t-15.5 -19.5z" />
<glyph unicode="&#xcd;" horiz-adv-x="768" d="M174 0h420l8 82h-135l38.5 293.5l35.5 294.5q20 199 34.5 397.5t24.5 398.5h131l10 82h-405l-10 -82h133q0 -25 -6 -49q-84 -416 -129 -831q-12 -127 -21.5 -252t-13.5 -252h-107zM406 1712q-2 -10 4 -22.5t18 -12.5l16 11h2q39 25 79 72.5t73 103t55.5 112t26.5 101.5 q2 20 1 41.5t-9 40t-22.5 30t-39.5 11.5q-47 0 -67.5 -35t-24.5 -74q-4 -45 -4 -90q0 -43 -4 -88q-6 -51 -22.5 -86t-35 -58.5t-32.5 -37t-14 -19.5z" />
<glyph unicode="&#xd1;" horiz-adv-x="1724" d="M133 0h397l9 82h-154l125 1204l31 -96q37 -117 83 -228l95 -223q57 -125 125.5 -260t161 -246.5t214 -183.5t285.5 -72h27q20 0 45 1.5t48.5 7.5t38.5 17t17 32q2 4 2 14q0 12 -8 12q-25 0 -50.5 -1t-51.5 -1q-33 0 -65.5 4.5t-63.5 16.5l143 1386h144l10 82h-420 l-10 -82h180l-137 -1321q-80 74 -147.5 172.5t-127 207t-111.5 218.5l-100 209l-150 300l-155 296h-268l-10 -82h151l-143 -1384h-152zM748 1866l38 -33q31 33 59.5 51.5t74.5 18.5q33 0 63 -12l61 -23l63 -23.5t67 -11.5q43 0 80.5 13.5t71.5 36t64.5 50t59.5 58.5l-41 39 q-33 -33 -61.5 -48.5t-75.5 -15.5q-43 0 -80 12.5t-72 27.5t-69.5 27.5t-71.5 12.5q-35 0 -67.5 -19.5t-62.5 -47t-55 -58.5z" />
<glyph unicode="&#xd3;" horiz-adv-x="1740" d="M225 694q-16 -147 10.5 -279t95 -232.5t181.5 -160t272 -59.5q197 0 353.5 71.5t270.5 194.5t182.5 287t86.5 348q14 150 -14.5 283t-101 233.5t-188.5 158.5t-275 58q-186 0 -340 -76.5t-265.5 -202.5t-180.5 -289t-87 -335zM471 547q-10 125 2 244q12 111 46 233.5 t98.5 225t162 170t234.5 67.5q147 0 236 -72t135.5 -180.5t55.5 -239.5t-3 -250q-12 -117 -46 -234.5t-98.5 -212.5t-163 -154.5t-239.5 -59.5q-143 0 -231.5 65.5t-133.5 169t-55 228.5zM991 1712q-2 -10 4 -22.5t19 -12.5l18 11h2q39 27 79 73.5t73 102t55.5 111 t26.5 102.5q2 20 0 41.5t-9.5 40t-22.5 30t-40 11.5q-45 0 -65.5 -36t-24.5 -73q-4 -45 -3 -89t-3 -89q-6 -51 -23.5 -86t-36 -58.5t-34 -37t-15.5 -19.5z" />
<glyph unicode="&#xda;" horiz-adv-x="1671" d="M294 387q-3 -113 25.5 -204t102.5 -148.5t217 -57.5q72 0 152.5 23t157.5 62.5t144.5 93t112.5 112.5h41q-4 -39 -6 -89t6 -96t34 -78t79 -32q70 0 143.5 17.5t138.5 42.5l-4 67q-25 -10 -50 -13t-50 -3q-35 0 -49 14.5t-27 42.5q-10 27 -8 125.5t12.5 234.5t25.5 295 l29 307l24 267q11 119 11 178h-276l-10 -82h141q-18 -133 -42 -265l-46 -265q-16 -98 -29.5 -197.5t-31.5 -197.5q-14 -80 -61.5 -153t-113 -129t-145.5 -89t-160 -33q-117 0 -176 54.5t-80.5 137.5t-17.5 181t14 186l31 301q16 139 27.5 275.5t15.5 275.5h-260l-10 -82h127 q-33 -197 -74 -389t-62 -391l-8 -76q-12 -110 -15 -223zM918 1712q-2 -10 4 -22.5t18 -12.5l16 11h2q39 25 79 72.5t73 103t55.5 112t26.5 101.5q2 20 1 41.5t-9 40t-22.5 30t-39.5 11.5q-47 0 -67.5 -35t-24.5 -74q-4 -45 -4 -88t-4 -88q-6 -51 -22.5 -87t-35 -59.5 t-32.5 -37t-14 -19.5z" />
<glyph unicode="&#xdc;" horiz-adv-x="1671" d="M294 387q-3 -113 25.5 -204t102.5 -148.5t217 -57.5q72 0 152.5 23t157.5 62.5t144.5 93t112.5 112.5h41q-4 -39 -6 -89t6 -96t34 -78t79 -32q70 0 143.5 17.5t138.5 42.5l-4 67q-25 -10 -50 -13t-50 -3q-35 0 -49 14.5t-27 42.5q-10 27 -8 125.5t12.5 234.5t25.5 295 l29 307l24 267q11 119 11 178h-276l-10 -82h141q-18 -133 -42 -265l-46 -265q-16 -98 -29.5 -197.5t-31.5 -197.5q-14 -80 -61.5 -153t-113 -129t-145.5 -89t-160 -33q-117 0 -176 54.5t-80.5 137.5t-17.5 181t14 186l31 301q16 139 27.5 275.5t15.5 275.5h-260l-10 -82h127 q-33 -197 -74 -389t-62 -391l-8 -76q-12 -110 -15 -223zM761 1945.5q1 -22.5 8 -41t21.5 -30.5t38.5 -12q25 0 41.5 12t27.5 30.5t16.5 41t7.5 41.5q2 18 0 40.5t-8.5 42t-20.5 34t-37 14.5t-40 -13.5t-28.5 -34t-17.5 -43t-8 -40.5q-2 -19 -1 -41.5zM1148 1945.5 q1 -22.5 8 -41t21.5 -30.5t39.5 -12t41 12t26 30.5t15.5 41t7.5 41.5q2 16 1 38.5t-7.5 43t-19.5 35t-36 14.5q-25 0 -42 -13.5t-28.5 -34t-17.5 -43t-8 -40.5q-2 -19 -1 -41.5z" />
<glyph unicode="&#xe1;" d="M165 285q3 -82 26.5 -153t73.5 -118t138 -47q70 0 138.5 31t129 85t108.5 127t79 159l-12 -127q-4 -43 -6 -88t8 -83t38.5 -62.5t84.5 -24.5q66 0 129 16t129 27l-2 71l-46 -8q-24 -4 -46 -4q-43 0 -68 27q-16 18 -20.5 69t-2 110.5t6.5 115.5l6 81q18 170 38.5 338 l39.5 338v9q4 29 -0.5 53t-40.5 24h-4l-125 -55q-39 16 -76 25.5t-82 9.5q-100 0 -183 -36t-152 -97.5t-121 -141t-90 -169t-60.5 -180.5t-30.5 -173q-8 -67 -5 -149zM377 386.5q2 64.5 6 113.5q2 25 1 50t3 48q10 96 28.5 189.5t60.5 166t117 116.5t195 44h9q27 0 56.5 -2 t52 -11t36.5 -28.5t10 -56.5q-6 -49 -19 -134t-38 -184.5t-58.5 -202t-78.5 -185.5t-100.5 -135t-122.5 -52q-68 0 -102 41t-46 99.5t-10 123zM643 1403q-2 -12 5 -26.5t22 -14.5q4 0 12 5t10 7h2q45 35 90 87t82 112.5t62.5 123t32.5 118.5q2 23 -0.5 48t-11.5 45.5 t-26.5 34t-45.5 13.5q-53 0 -77 -39t-28 -84q-4 -51 -3 -101.5t-3 -101.5q-8 -66 -26.5 -110.5t-71.5 -87.5h-2q-19 -11 -23 -29z" />
<glyph unicode="&#xe9;" horiz-adv-x="999" d="M167 299q3 -88 31.5 -160.5t88 -120t162.5 -47.5q109 0 213 49.5t178 135.5q14 16 32.5 39.5t22.5 44.5q2 14 -12.5 32.5t-28.5 18.5q-6 0 -12 -8q-49 -66 -116 -112t-148 -46q-59 0 -97.5 21.5t-60 58.5t-28.5 84t-5 98q117 0 223.5 37t191.5 106.5t140 167t68 217.5 q16 139 -52.5 227.5t-212.5 88.5q-137 0 -239.5 -78t-173 -193.5t-109.5 -247.5t-51 -243q-8 -82 -5 -170zM389 563q4 37 12.5 94.5t22.5 121t35.5 127t52.5 114.5t73 83t95 32q49 0 81 -26t48 -63.5t21.5 -84t0.5 -87.5q-8 -76 -39.5 -146.5t-84 -124.5t-121 -87 t-148.5 -33q-39 0 -46 24.5t-3 55.5zM598 1403q-2 -12 5 -26.5t22 -14.5q4 0 12 5t12 7q45 35 90 87t82 112.5t62.5 123t31.5 118.5q2 23 0 48t-11 45.5t-26.5 34t-46.5 13.5q-53 0 -76.5 -39t-27.5 -84q-4 -51 -3 -101.5t-3 -101.5q-8 -66 -26.5 -110.5t-73.5 -87.5 q-19 -11 -23 -29z" />
<glyph unicode="&#xed;" horiz-adv-x="628" d="M195 131q0 -41 11 -74.5t38.5 -55t81.5 -21.5q66 0 130 15t130 25l-4 72q-47 -10 -88 -10q-39 0 -56.5 31.5t-23.5 74.5t-3 90l5 74l2 8q10 92 14 184.5t14 184.5q10 119 16.5 236.5t4.5 236.5h-240l-8 -74h135q-47 -229 -89 -456.5t-66 -456.5q-4 -41 -4 -84zM297 1403 q-2 -12 5 -26.5t22 -14.5q4 0 11 5t9 7h2q45 35 90 87t82 112.5t62.5 123t31.5 118.5q2 23 0 48t-10 45.5t-25.5 34t-46.5 13.5q-53 0 -76.5 -39t-27.5 -84q-4 -51 -4 -102q0 -49 -4 -101q-4 -35 -9.5 -61.5t-16.5 -48t-27.5 -43t-42.5 -45.5h-3q-18 -11 -22 -29z" />
<glyph unicode="&#xf1;" horiz-adv-x="1280" d="M201 80q0 -18 3 -36.5t12 -31t28 -12.5h32q29 0 56.5 4t42.5 27q12 20 17 45.5t9 48.5q12 109 26.5 208t40.5 193.5t68 186.5t107 190l46 64q28 37 60.5 70.5t68.5 57t71 23.5q31 0 47 -13t23.5 -34.5t6.5 -47.5t-3 -50q-16 -172 -50 -339t-51 -339l-6 -41q-4 -43 -5 -91 t9 -88t38 -65.5t81 -25.5q66 0 130.5 16t129.5 27l-2 71q-47 -12 -94 -12q-37 0 -53.5 36t-21.5 83t-2 95t7 73l45 436q6 66 8 139.5t-13 137t-55 104.5t-118 41q-74 0 -147.5 -46t-139 -120t-120 -165t-91.5 -183l7.5 147.5l6.5 126t5 109.5t6 102h-240l-8 -74h135 q-37 -256 -81 -507.5t-70 -507.5q-2 -13 -2 -33zM444 1731l50 -41q35 37 65.5 59.5t83.5 22.5q29 0 63 -14l70 -28q37 -15 76 -27.5t82 -12.5q47 0 89 15t81 42t73.5 58.5t67.5 66.5l-47 43q-29 -35 -70 -53.5t-81 -18.5q-45 0 -87 14.5t-82 31t-81 30.5t-86 14 q-43 0 -80 -20.5t-70 -51t-61 -65.5l-54 -65h-2z" />
<glyph unicode="&#xf3;" horiz-adv-x="1218" d="M174 287q10 -92 49 -165t111 -117t182 -44q147 0 262 72.5t198 186.5t132 249t61 262q10 94 -1 186.5t-50 164t-109.5 115.5t-181.5 44q-143 0 -257.5 -73.5t-198.5 -186.5t-134.5 -248t-62.5 -258q-10 -96 0 -188zM385 459q-2 88 6 159q8 74 27.5 161t59.5 162 t103.5 125t159.5 50q90 0 139.5 -58.5t70 -142.5t20.5 -176q0 -90 -6 -157q-6 -68 -25.5 -150t-57.5 -152.5t-97.5 -118.5t-147.5 -48q-94 0 -147.5 52t-78 129t-26.5 165zM641 1403q-2 -12 5 -26.5t22 -14.5q4 0 12 5t10 7h2q45 35 90 87t82 112.5t62.5 123t31.5 118.5 q2 23 0 48t-11 45.5t-26.5 34t-43.5 13.5q-53 0 -77 -39t-28 -84q-4 -51 -4 -102q0 -49 -4 -101q-8 -66 -26.5 -110.5t-71.5 -87.5h-2q-19 -11 -23 -29z" />
<glyph unicode="&#xfa;" horiz-adv-x="1312" d="M214 231.5q1 -71.5 22.5 -129t69.5 -94.5t134 -37q66 0 136.5 32t135 84t116 122t77.5 147l-12 -120q-4 -41 -6 -85.5t8 -81t36.5 -61t80.5 -24.5q66 0 129 16t129 27l-2 71l-45 -8q-23 -4 -45 -4q-55 0 -67.5 37t-12.5 82q-2 104 5 206.5t17 206.5q16 147 35 292t35 292 h-49q-39 0 -62.5 -23.5t-39 -57.5t-22.5 -71.5t-11 -64.5l-26 -142q-15 -85 -40 -180.5t-60.5 -191.5t-82.5 -173t-109.5 -125t-142.5 -48q-59 0 -88 29.5t-40 73.5t-8 95.5t7 94.5q10 86 16 171l12 171q8 111 10.5 221.5t12.5 220.5h-240l-8 -74h135l-78 -377 q-37 -187 -57 -380q-6 -68 -5 -139.5zM672 1403q-2 -12 5 -26.5t21 -14.5q4 0 12.5 5t10.5 7h2q45 35 90 87t82 112.5t62.5 123t31.5 118.5q2 23 0 48t-11 45.5t-26.5 34t-44.5 13.5q-53 0 -76.5 -39t-27.5 -84q-4 -51 -4 -102q0 -49 -4 -101q-8 -66 -26.5 -110.5 t-72.5 -87.5h-2q-18 -11 -22 -29zM1266 98h2v2h-2v-2z" />
<glyph unicode="&#xfc;" horiz-adv-x="1312" d="M214 231.5q1 -71.5 22.5 -129t69.5 -94.5t134 -37q66 0 136.5 32t135 84t116 122t77.5 147l-12 -120q-4 -41 -6 -85.5t8 -81t36.5 -61t80.5 -24.5q66 0 129 16t129 27l-2 71l-45 -8q-23 -4 -45 -4q-55 0 -67.5 37t-12.5 82q-2 104 5 206.5t17 206.5q16 147 35 292t35 292 h-49q-39 0 -62.5 -23.5t-39 -57.5t-22.5 -71.5t-11 -64.5l-26 -142q-15 -85 -40 -180.5t-60.5 -191.5t-82.5 -173t-109.5 -125t-142.5 -48q-59 0 -88 29.5t-40 73.5t-8 95.5t7 94.5q10 86 16 171l12 171q8 111 10.5 221.5t12.5 220.5h-240l-8 -74h135l-78 -377 q-37 -187 -57 -380q-6 -68 -5 -139.5zM540 1729.5q1 -23.5 8 -45t22.5 -35t43.5 -13.5q27 0 46.5 13.5t32 34t19.5 45t9 47.5q2 20 1 46.5t-8 49t-22.5 39t-42.5 16.5t-46 -15.5t-32.5 -39t-20.5 -50t-9 -46.5q-2 -23 -1 -46.5zM873 1728.5q1 -24.5 9.5 -45t24 -34 t43.5 -13.5q27 0 47.5 13.5t32.5 34t19.5 45t9.5 47.5q2 20 1 46.5t-9.5 50t-24.5 39t-43 15.5t-46 -16.5t-32.5 -40t-20.5 -49t-10 -45.5q-2 -23 -1 -47.5zM1266 98h2v2h-2v-2z" />
<glyph unicode="&#x2c6;" horiz-adv-x="1441" d="M559 1733q-2 -12 12 -13h13q16 0 25 1t16.5 5.5t13.5 12.5l18 24l211 275h33l92 -266q6 -16 9.5 -26.5t8.5 -17t14 -8.5t26 -2h16q23 0 47.5 4t28.5 27q0 8 -11.5 41l-25.5 70.5t-29 71.5l-20 48q-4 6 -18 41l-29 75q-16 40 -31.5 72t-22.5 32h-26q-12 0 -27 -2 q-10 -10 -40 -48l-67 -86l-79 -104l-76 -103l-58 -83q-24 -35 -24 -41z" />
<glyph unicode="&#x2da;" horiz-adv-x="794" d="M414 1642q-8 -80 26.5 -138t122.5 -58q57 0 100.5 26.5t74 68.5t48 92t23.5 100q8 80 -25.5 140t-121.5 60q-55 0 -99.5 -27.5t-75 -70.5t-49 -94.5t-24.5 -98.5zM500 1639.5q-2 35.5 0 64.5q2 27 10 57.5t23.5 56t38 43t57.5 17.5t55.5 -21.5t29.5 -52t10 -65.5t-1 -62 q-2 -25 -9 -55.5t-21.5 -58t-36 -46t-54.5 -18.5q-37 0 -58.5 21.5t-31.5 52.5t-12 66.5z" />
<glyph unicode="&#x2dc;" horiz-adv-x="1441" d="M496 1470l43 -32q31 33 58.5 50t72.5 17q35 0 65.5 -10t61 -23.5t61.5 -23.5t66 -10q43 0 80.5 13t71.5 35.5t64.5 50.5t59.5 58l-41 39q-35 -23 -61.5 -43t-71.5 -20q-41 0 -77 12t-71.5 26.5t-72.5 27t-76 12.5q-35 0 -67.5 -18.5t-62.5 -46.5t-55 -58l-46 -56h-2z" />
<glyph unicode="&#x2000;" horiz-adv-x="1099" />
<glyph unicode="&#x2001;" horiz-adv-x="2199" />
<glyph unicode="&#x2002;" horiz-adv-x="1099" />
<glyph unicode="&#x2003;" horiz-adv-x="2199" />
<glyph unicode="&#x2004;" horiz-adv-x="733" />
<glyph unicode="&#x2005;" horiz-adv-x="548" />
<glyph unicode="&#x2006;" horiz-adv-x="366" />
<glyph unicode="&#x2007;" horiz-adv-x="366" />
<glyph unicode="&#x2008;" horiz-adv-x="274" />
<glyph unicode="&#x2009;" horiz-adv-x="438" />
<glyph unicode="&#x200a;" horiz-adv-x="120" />
<glyph unicode="&#x2010;" horiz-adv-x="919" d="M219 555h578l14 139h-578z" />
<glyph unicode="&#x2011;" horiz-adv-x="919" d="M219 555h578l14 139h-578z" />
<glyph unicode="&#x2012;" horiz-adv-x="919" d="M219 555h578l14 139h-578z" />
<glyph unicode="&#x2013;" horiz-adv-x="980" d="M219 555h578l14 139h-578z" />
<glyph unicode="&#x2014;" horiz-adv-x="1560" d="M219 555h1159l15 139h-1160z" />
<glyph unicode="&#x2018;" horiz-adv-x="401" d="M209 1376.5q2 -26.5 12 -48t28.5 -35t49.5 -13.5t53.5 14.5t38 36t23.5 49t12 52.5q4 47 0 93t0 93q4 33 16.5 70.5t31 74.5t43 69t52.5 54q6 6 14.5 12.5t8.5 16.5q2 10 0 26.5t-17 16.5q-14 0 -27 -9.5t-24 -19.5h-2q-57 -39 -110.5 -97t-96.5 -127t-71.5 -140.5 t-34.5 -137.5q-2 -24 0 -50.5z" />
<glyph unicode="&#x2019;" horiz-adv-x="464" d="M145 1315q-2 -10 3.5 -23.5t15.5 -13.5q12 0 28.5 9t26.5 18q57 39 110.5 97t94.5 124.5t68.5 138.5t35.5 139q2 25 0 52.5t-11 49t-27.5 36t-49.5 14.5t-53 -14.5t-37.5 -36t-24 -48t-10.5 -51.5q-6 -47 -2 -93t0 -93q-8 -72 -47 -147.5t-98 -122.5v-2q0 -2 -2 0 q-21 -15 -21 -33z" />
<glyph unicode="&#x201a;" horiz-adv-x="407" d="M-25 -324q-2 -10 3.5 -23t15.5 -13q6 0 20.5 9t22.5 13q59 33 113.5 92.5t98.5 130t72.5 145t34.5 138.5q2 25 1 52.5t-10 49t-28.5 35.5t-50.5 14q-29 0 -51 -14t-38.5 -36.5t-26 -49t-11.5 -51.5q-4 -47 1 -93t1 -93q-10 -88 -56 -157t-112 -149z" />
<glyph unicode="&#x201c;" horiz-adv-x="843" d="M209 1376.5q2 -26.5 12 -48t28.5 -35t49.5 -13.5t53.5 14.5t38 36t23.5 49t12 52.5q4 47 0 93t0 93q4 33 16.5 70.5t31 74.5t43 69t52.5 54q6 6 14.5 12.5t8.5 16.5q2 10 0 26.5t-17 16.5q-14 0 -27 -9.5t-24 -19.5h-2q-57 -39 -110.5 -97t-96.5 -127t-71.5 -140.5 t-34.5 -137.5q-2 -24 0 -50.5zM647 1378.5q2 -26.5 11.5 -48t29 -36t49.5 -14.5q31 0 53.5 14.5t38 36t23.5 49t12 52.5q4 47 0 92t0 92q8 74 47 145.5t97 124.5l1 1q1 1 3 1q8 4 14 12.5t6 18.5q2 8 -2 24.5t-14 16.5q-8 0 -22.5 -9l-22.5 -14h-2q-55 -33 -110.5 -93 t-99.5 -131t-74 -145.5t-36 -135.5q-4 -27 -2 -53.5z" />
<glyph unicode="&#x201d;" horiz-adv-x="843" d="M145 1315q-2 -10 3.5 -23.5t15.5 -13.5q12 0 28.5 9t26.5 18q57 39 110.5 97t94.5 124.5t68.5 138.5t35.5 139q2 25 0 52.5t-11 49t-27.5 36t-49.5 14.5t-53 -14.5t-37.5 -36t-24 -48t-10.5 -51.5q-6 -47 -2 -93t0 -93q-8 -72 -47 -147.5t-98 -122.5v-2q0 -2 -2 0 q-21 -15 -21 -33zM586 1294.5q2 -16.5 16 -16.5q12 0 27.5 10l25.5 17q57 39 110.5 97t95.5 124.5t69.5 138.5t36.5 139q2 25 0 51.5t-11.5 49t-28 37t-48.5 14.5q-29 0 -51.5 -14.5t-38 -36t-24.5 -48t-11 -51.5q-6 -47 -2 -94t0 -94q-6 -66 -33 -118t-56.5 -91t-53 -61.5 t-23.5 -26.5q-2 -10 0 -26.5z" />
<glyph unicode="&#x201e;" horiz-adv-x="843" d="M-25 -319q0 -10 4.5 -23.5t14.5 -13.5t27.5 9t27.5 17q57 39 109.5 97.5t94.5 125t69.5 138t33.5 139.5q2 25 1 52.5t-10 49t-27.5 36t-49.5 14.5t-53 -14.5t-37.5 -36t-25 -48t-11.5 -51.5q-4 -47 0 -93t0 -93q-8 -72 -47 -148t-96 -123v-2q0 -2 -2 0q-19 -9 -23 -32z M415 -340q1 -16 15 -16q12 0 29 10l26 16q57 39 110.5 97.5t95.5 125t69.5 138t34.5 139.5q2 25 1 51.5t-10.5 49t-28 37t-48.5 14.5q-29 0 -51.5 -14.5t-38 -36t-25.5 -48t-12 -51.5q-4 -47 0 -94t0 -94q-6 -66 -34 -118t-56.5 -91t-52 -61.5t-23.5 -26.5q-2 -11 -1 -27z " />
<glyph unicode="&#x2026;" horiz-adv-x="1486" d="M206 87q1 -30 9 -55.5t26.5 -43t51.5 -17.5q31 0 52.5 19.5t35.5 47.5t21.5 58.5t9.5 55.5q2 23 1 53.5t-8.5 57t-25 45t-47.5 18.5q-33 0 -55.5 -19.5t-37 -47.5t-21.5 -60.5t-9 -57.5q-4 -24 -3 -54zM648 87q1 -30 8.5 -55.5t25.5 -43t51 -17.5t54.5 19.5t35 47.5 t20.5 58.5t9 55.5q2 23 2 53q0 31 -8 57.5t-24.5 45t-47.5 18.5q-35 0 -57.5 -19.5t-35.5 -47.5t-20.5 -60.5t-9.5 -57.5q-4 -24 -3 -54zM1088.5 85q1.5 -30 8.5 -55.5t25.5 -42t53.5 -16.5q31 0 52 19.5t35.5 47.5t21.5 58.5t9 55.5q2 23 1 53.5t-8 57t-24.5 45t-48.5 18.5 q-33 0 -55 -19.5t-36.5 -47.5t-21.5 -60.5t-9 -57.5q-5 -26 -3.5 -56z" />
<glyph unicode="&#x202f;" horiz-adv-x="438" />
<glyph unicode="&#x2039;" horiz-adv-x="522" d="M80 578q-2 -10 18 -48l52 -88l68 -111l73 -115l62 -98q28 -44 38 -65q16 -29 30.5 -41t51.5 -12h129q8 0 17.5 2t9.5 10q2 6 -3 14.5t-5 14.5l-203 285q-98 143 -185 297l62 60l102 99l119 116l114 114l87 91q35 38 35 48q0 6 -6.5 17.5t-16.5 22.5t-20.5 20.5t-16.5 9.5 l-2 -2l-246 -258l-153 -162q-76 -82 -158 -156l-31 -31q-20 -20 -22 -34z" />
<glyph unicode="&#x203a;" horiz-adv-x="522" d="M-104 51q0 -8 7 -19.5t17 -22.5t21.5 -18t19.5 -9l268 291l281 282l32 33q19 20 21 37q4 18 -3 28l-15 23l-23 37l-56 93l-73 121l-76 123l-64 100q-28 42 -36 50q-16 2 -31 2h-28h-107q-4 0 -19.5 -1t-17.5 -11q0 -6 14.5 -30.5t37.5 -57.5l49 -72l52 -74l45 -61 q19 -27 28 -37q47 -66 89 -135.5l81 -140.5q-16 -18 -61 -62l-100 -98l-119 -116l-114 -113l-86 -93q-34 -39 -34 -49z" />
<glyph unicode="&#x205f;" horiz-adv-x="548" />
<glyph unicode="&#x20ac;" horiz-adv-x="1308" d="M45 461h145q8 -106 39 -196.5t91.5 -156t152.5 -102.5t223 -37q125 0 246 43t221 131q10 8 27 25l34 35q17 18 29.5 36.5t12.5 30.5q2 12 -13.5 32t-29.5 20q-2 0 -2 -3h-2l-93 -81q-45 -39 -93 -68t-102 -46.5t-118 -17.5q-92 0 -159.5 28t-113.5 76t-74 112.5 t-40 138.5h408l16 164h-438q0 47 3 93t7 91l2 25h475l16 161h-464q20 92 54 179.5t89 157t134 111.5t187 42q68 0 119 -9.5t86 -33t53.5 -66.5t24.5 -110q2 -16 3 -35t7 -35t17.5 -26.5t34.5 -10.5q6 0 14 -1t18 -1q12 0 21.5 4t11.5 19l29 288q4 23 2 36.5t-21 25.5 q-20 14 -66 25.5t-98.5 20.5t-101.5 14t-76 5q-139 0 -253.5 -49t-205 -131t-157 -191.5t-109.5 -228.5h-104l-17 -161h74q-10 -41 -15 -80t-9 -78l-7 -51h-129z" />
<glyph unicode="&#x2122;" horiz-adv-x="2314" d="M188 1638q-2 -12 9.5 -14t23.5 -2q43 0 59.5 25.5t20.5 58.5q4 20 11 43t22.5 41t42 29.5t72.5 11.5l151 -12q-33 -158 -59.5 -314.5t-42.5 -316.5q-10 -92 -15.5 -186.5t-7.5 -186.5l-10 -10h-98l-9 -70h369l8 70h-102l-10 10l32 191q16 96 27 192q12 123 18.5 235.5 t10.5 229.5q2 39 3 79t5 81l80 10q55 0 110.5 -5t75.5 -34l2 -2q4 -10 7 -29.5t1 -36.5q4 -41 19.5 -73.5t62.5 -32.5q20 0 27 22q4 33 4 66t-2 68q-2 33 -1 65.5t5 67.5q2 18 -12 18q-113 0 -219 -6l-110 -4q-54 -2 -107 -2q-47 0 -98.5 1t-104.5 3q-47 2 -97 2h-90 q-12 0 -15 -7t-5 -18q-2 -16 -9 -41.5t-14 -42.5q-14 -47 -25.5 -90t-15.5 -84zM907 729h297l6 70h-96l-8 12l244 860q33 -244 69.5 -480.5t93.5 -426.5q10 -35 24.5 -40t53.5 -5q25 0 37 6t27 37l370 876l76 -827l-12 -12h-86l-6 -70h381l6 70h-17q-37 0 -56 5t-29.5 17.5 t-13.5 34t-7 53.5q-4 31 -9 74l-10.5 94l-11.5 105l-12 106q-6 51 -11 100l-9 85q-4 37 -7.5 60t-3.5 28q-2 23 -9 76l-14 113q-7 58 -14.5 106.5t-9.5 56.5h-229l-6 -70h143l-110 -246l-109 -235l-98 -210q-35 -75 -53.5 -110.5t-23.5 -43t-9 -7.5l-9 2l-2 2v4 q-18 59 -31.5 119t-23.5 119q-8 35 -14 68l-13 67v2l-49 257t-73 282h-199l-6 -70h112l-284 -911q-16 -57 -45 -95t-95 -38z" />
<glyph unicode="&#xe000;" horiz-adv-x="1200" d="M0 1200h1200v-1200h-1200v1200z" />
<glyph unicode="&#xfb01;" horiz-adv-x="1243" d="M201 41q0 -25 3 -33t32 -8h28q31 0 61.5 7t47.5 36q8 18 18 66.5t17.5 103.5t13.5 107.5t10 76.5q16 160 26.5 318.5t26.5 318.5l9 64h471q-18 -70 -30.5 -139.5t-27.5 -141.5q-29 -150 -52.5 -299t-39.5 -301q-4 -41 -5 -83t10 -76.5t39 -56t81 -21.5q66 0 130.5 15 t129.5 25l-4 72q-45 -10 -88 -10q-39 0 -56.5 51t-22.5 126t0 162t13 161q6 53 12 92l7 55q12 119 17 236.5t3 236.5h-575q6 53 15 121t25.5 138.5t43 137t66.5 120t96.5 85t132.5 31.5q63 0 88.5 -31.5t37.5 -70.5l20 -71q9 -32 42 -32h19q27 0 38 6t15 41q4 37 8 70t8 59 q4 39 1 68t-21.5 47t-56 27.5t-103.5 9.5q-121 0 -215 -49t-166 -128t-123 -179.5t-84 -204.5l-11 -37l-14 -46q-7 -24 -16.5 -44.5t-17.5 -30.5q-23 -29 -49.5 -33t-57.5 -4l-12 -115h100q-12 -61 -20 -122l-16 -123l-54 -514q-4 -39 -9 -81t-9 -83q-4 -33 -6 -63.5 t0 -59.5z" />
<glyph unicode="&#xfb02;" horiz-adv-x="1288" d="M201 41q0 -23 4 -32t31 -9h28q31 0 61.5 7t47.5 36q8 18 18 66.5t18 104.5l13 108q6 51 10 75q16 160 26.5 318.5t26.5 318.5l7 53h280q29 0 36 11.5t11 40.5l6 63h-319q6 55 16 125t26.5 139.5t44.5 136t68.5 119t98 83t135.5 30.5q63 0 96 -20.5t46.5 -55.5t12.5 -81 t-8 -97q-10 -86 -23 -168l-28 -166q-39 -242 -68.5 -479.5t-56.5 -478.5l-4 -41q-4 -43 -5 -90t9.5 -86t38 -64.5t80.5 -25.5q66 0 129.5 14t128.5 24l-4 72q-20 -4 -41.5 -7t-42.5 -3q-43 0 -60.5 51t-21.5 121t1 137.5t9 102.5v8q2 31 10.5 105.5t18.5 177.5l22 225 q11 121 21 244l20 240q9 116 13 207t4 148q0 59 -8 68q-12 12 -38 20.5t-55.5 13.5t-58 7t-47.5 2q-123 0 -218 -48t-167 -128t-123 -181.5t-84 -205.5l-11 -37l-14 -46q-7 -24 -16.5 -44.5t-17.5 -30.5q-23 -29 -49.5 -33t-57.5 -4l-12 -115h100q-25 -129 -36 -258 l-50 -473q-4 -43 -10 -89l-12 -93q-4 -35 -6 -67.5t0 -65.5z" />
<glyph unicode="&#xfb03;" horiz-adv-x="1720" d="M201 41q0 -23 19.5 -34t47.5 -11q31 0 61.5 12t43.5 35q8 18 18 66.5t17.5 103.5t13.5 107.5t10 76.5q16 160 26.5 318.5t26.5 318.5l7 53l356 -2q-12 -61 -21 -122l-16 -123l-53 -514q-4 -39 -9.5 -81t-9.5 -83q-4 -33 -7 -63.5t-1 -59.5q2 -25 4 -33t31 -8h29 q31 0 62.5 7t47.5 36q8 18 18.5 66.5t17.5 103.5l13.5 107.5t10.5 76.5q16 160 26 318.5t27 318.5l6 64h471q-16 -70 -28.5 -139.5l-26.5 -141.5q-29 -150 -53.5 -299t-40.5 -301q-4 -41 -5 -84q0 -41 11.5 -76t39 -56.5t81.5 -21.5q66 0 129 15.5t129 25.5l-2 72 q-45 -10 -89 -10q-39 0 -56 51t-22.5 126t0 162t13.5 161q6 53 10 92t8 55q12 119 17.5 236.5t3.5 236.5h-576q6 53 15.5 121t26 138.5t43 137t66.5 119.5t96 85t132 32q63 0 89 -32t37 -70l21 -71q9 -32 42 -32h18q27 0 38 6t15 41q4 37 8.5 70t8.5 59q4 39 1 68t-21.5 47 t-56.5 27.5t-104 9.5q-111 0 -197.5 -41t-154.5 -107q2 39 -1 67t-21.5 46t-56.5 27.5t-101 9.5q-121 0 -215 -49t-166 -128t-123 -179.5t-84 -204.5l-11 -37l-14 -46q-7 -24 -16.5 -44.5t-17.5 -30.5q-23 -29 -49.5 -33t-57.5 -4l-12 -115h100q-25 -133 -36 -264l-52 -471 q-4 -41 -9 -84t-9 -86q-4 -35 -6 -70.5t-2 -70.5zM506 1202l4 41q6 51 15.5 115.5t27.5 130t45 128t67 111t94 78t126 29.5q51 0 76.5 -21.5t38 -52t19.5 -62.5t19 -50q-72 -121 -112 -254l-64 -189z" />
<glyph unicode="&#xfb04;" horiz-adv-x="1847" d="M227 41q0 -23 19.5 -34t48.5 -11q31 0 61.5 12t42.5 35q8 18 18.5 66.5t17.5 103.5l13.5 107.5t10.5 76.5q16 160 26.5 318.5t26.5 318.5l6 53h356q-25 -129 -36 -258l-50 -473q-4 -43 -10 -89l-12 -93q-4 -35 -6 -67.5t0 -65.5q0 -23 4 -32t31 -9h28q31 0 61.5 7 t47.5 36q8 18 18.5 66.5t17.5 104.5l13 108q6 51 10 75q16 160 26.5 318.5t26.5 318.5l7 53h280q29 0 36 11.5t11 40.5l6 63h-319q6 55 16.5 125t26.5 139.5t44 136t69 119t98 83t135 30.5q63 0 96 -20.5t46.5 -55.5t12.5 -81t-7 -97q-10 -86 -24 -168l-28 -166 q-39 -242 -68.5 -479.5t-56.5 -478.5l-4 -41q-4 -43 -5 -90t9.5 -86t38 -64.5t80.5 -25.5q66 0 129.5 14t128.5 24l-4 72q-20 -4 -41.5 -7t-42.5 -3q-43 0 -60.5 51t-21.5 121t1 137.5t9 102.5v8q2 31 10.5 105.5t18.5 177.5l22 225q11 121 21 244l20 240q9 116 13 207 t4 148q0 59 -8 68q-12 12 -38 20.5t-55.5 13.5t-58 7t-47.5 2q-111 0 -199 -40t-157 -105q2 37 -2 63.5t-22.5 45t-56.5 26.5t-99 8q-121 0 -215.5 -49t-166 -128t-122.5 -179.5t-84 -204.5l-11 -37l-15 -46q-7 -24 -16 -44.5t-18 -30.5q-23 -29 -49 -33t-57 -4l-12 -115 h100q-25 -133 -37 -264l-51 -471q-4 -41 -9 -84t-9 -86q-4 -35 -6.5 -70.5t-2.5 -70.5zM532 1202l5 41q6 51 15 115.5t27.5 130t45 128t66.5 111t94.5 78t125.5 29.5q51 0 76 -21.5t37 -51t19.5 -60.5t19.5 -51q-35 -59 -62.5 -124t-48.5 -130l-11 -37l-14 -46 q-7 -24 -16.5 -44.5t-17.5 -30.5q-23 -29 -49.5 -33t-57.5 -4h-254z" />
</font>
</defs></svg> 